curl -X PUT   'http://consul.swiggyops.de/v1/kv/rock-config/production/dexp-orchestrator/DEXP_ORCH_ENV?dc=swiggy-aws'   -H 'Postman-Token: 45b555be-42e3-429d-8b03-5a297b6f87e2'   -H 'X-Consul-Token: 4109e905-ca21-8101-fce2-10f640a9bd15'   -H 'cache-control: no-cache'   -d '"TEST"'
curl -X PUT   'http://consul.swiggyops.de/v1/kv/rock-config/production/dexp-orchestrator/DEXP_ORCH_REDIS_HOSTPORT?dc=swiggy-aws'   -H 'Postman-Token: 45b555be-42e3-429d-8b03-5a297b6f87e2'   -H 'X-Consul-Token: 4109e905-ca21-8101-fce2-10f640a9bd15'   -H 'cache-control: no-cache'   -d '"delivery-u-cuat-03.swiggyops.de"'
curl -X PUT   'http://consul.swiggyops.de/v1/kv/rock-config/production/dexp-orchestrator/DEXP_ORCH_REDIS_DB_INDEX?dc=swiggy-aws'   -H 'Postman-Token: 45b555be-42e3-429d-8b03-5a297b6f87e2'   -H 'X-Consul-Token: 4109e905-ca21-8101-fce2-10f640a9bd15'   -H 'cache-control: no-cache'   -d '"0"'
curl -X PUT   'http://consul.swiggyops.de/v1/kv/rock-config/production/dexp-orchestrator/DEXP_ORCH_REDIS_TIMEOUT_MS?dc=swiggy-aws'   -H 'Postman-Token: 45b555be-42e3-429d-8b03-5a297b6f87e2'   -H 'X-Consul-Token: 4109e905-ca21-8101-fce2-10f640a9bd15'   -H 'cache-control: no-cache'   -d '"1000"'
curl -X PUT   'http://consul.swiggyops.de/v1/kv/rock-config/production/dexp-orchestrator/DEXP_ORCH_REDIS_POOL_SIZE?dc=swiggy-aws'   -H 'Postman-Token: 45b555be-42e3-429d-8b03-5a297b6f87e2'   -H 'X-Consul-Token: 4109e905-ca21-8101-fce2-10f640a9bd15'   -H 'cache-control: no-cache'   -d '"10"'
curl -X PUT   'http://consul.swiggyops.de/v1/kv/rock-config/production/dexp-orchestrator/SERVER_PORT?dc=swiggy-aws'   -H 'Postman-Token: 45b555be-42e3-429d-8b03-5a297b6f87e2'   -H 'X-Consul-Token: 4109e905-ca21-8101-fce2-10f640a9bd15'   -H 'cache-control: no-cache'   -d '"8080"'
curl -X PUT   'http://consul.swiggyops.de/v1/kv/rock-config/production/dexp-orchestrator/METRIC_PORT?dc=swiggy-aws'   -H 'Postman-Token: 45b555be-42e3-429d-8b03-5a297b6f87e2'   -H 'X-Consul-Token: 4109e905-ca21-8101-fce2-10f640a9bd15'   -H 'cache-control: no-cache'   -d '"7091"'
curl -X PUT   'http://consul.swiggyops.de/v1/kv/rock-config/production/dexp-orchestrator/OSUV2_KAFKA_CONSUMER_COUNT?dc=swiggy-aws'   -H 'Postman-Token: 45b555be-42e3-429d-8b03-5a297b6f87e2'   -H 'X-Consul-Token: 4109e905-ca21-8101-fce2-10f640a9bd15'   -H 'cache-control: no-cache'   -d '"1"'
curl -X PUT   'http://consul.swiggyops.de/v1/kv/rock-config/production/dexp-orchestrator/OSUV2_KAFKA_CONSUMER_TOPIC?dc=swiggy-aws'   -H 'Postman-Token: 45b555be-42e3-429d-8b03-5a297b6f87e2'   -H 'X-Consul-Token: 4109e905-ca21-8101-fce2-10f640a9bd15'   -H 'cache-control: no-cache'   -d '"order_status_update_v2"'
curl -X PUT   'http://consul.swiggyops.de/v1/kv/rock-config/production/dexp-orchestrator/OSUV2_KAFKA_CONSUMER_GROUP?dc=swiggy-aws'   -H 'Postman-Token: 45b555be-42e3-429d-8b03-5a297b6f87e2'   -H 'X-Consul-Token: 4109e905-ca21-8101-fce2-10f640a9bd15'   -H 'cache-control: no-cache'   -d '"dexp-orchestrator-consumer"'
curl -X PUT   'http://consul.swiggyops.de/v1/kv/rock-config/production/dexp-orchestrator/OSUV2_KAFKA_CONSUMER_BROKERS?dc=swiggy-aws'   -H 'Postman-Token: 45b555be-42e3-429d-8b03-5a297b6f87e2'   -H 'X-Consul-Token: 4109e905-ca21-8101-fce2-10f640a9bd15'   -H 'cache-control: no-cache'   -d '"central-kafka.u4.swiggy.in:9092"'
curl -X PUT   'http://consul.swiggyops.de/v1/kv/rock-config/production/dexp-orchestrator/KAFKA_ENABLE_CONSUMER_MSG_PROCESSING?dc=swiggy-aws'   -H 'Postman-Token: 45b555be-42e3-429d-8b03-5a297b6f87e2'   -H 'X-Consul-Token: 4109e905-ca21-8101-fce2-10f640a9bd15'   -H 'cache-control: no-cache'   -d '"true"'
curl -X PUT   'http://consul.swiggyops.de/v1/kv/rock-config/production/dexp-orchestrator/CAN_REASON_KAFKA_CONSUMER_COUNT?dc=swiggy-aws'   -H 'Postman-Token: 45b555be-42e3-429d-8b03-5a297b6f87e2'   -H 'X-Consul-Token: 4109e905-ca21-8101-fce2-10f640a9bd15'   -H 'cache-control: no-cache'   -d '"1"'
curl -X PUT   'http://consul.swiggyops.de/v1/kv/rock-config/production/dexp-orchestrator/CAN_REASON_KAFKA_CONSUMER_BROKERS?dc=swiggy-aws'   -H 'Postman-Token: 45b555be-42e3-429d-8b03-5a297b6f87e2'   -H 'X-Consul-Token: 4109e905-ca21-8101-fce2-10f640a9bd15'   -H 'cache-control: no-cache'   -d '"central-kafka.u4.swiggy.in:9092"'
curl -X PUT   'http://consul.swiggyops.de/v1/kv/rock-config/production/dexp-orchestrator/CAN_REASON_KAFKA_CONSUMER_TOPIC?dc=swiggy-aws'   -H 'Postman-Token: 45b555be-42e3-429d-8b03-5a297b6f87e2'   -H 'X-Consul-Token: 4109e905-ca21-8101-fce2-10f640a9bd15'   -H 'cache-control: no-cache'   -d '"swiggy.order_cancel"'
curl -X PUT   'http://consul.swiggyops.de/v1/kv/rock-config/production/dexp-orchestrator/CAN_REASON_KAFKA_CONSUMER_GROUP?dc=swiggy-aws'   -H 'Postman-Token: 45b555be-42e3-429d-8b03-5a297b6f87e2'   -H 'X-Consul-Token: 4109e905-ca21-8101-fce2-10f640a9bd15'   -H 'cache-control: no-cache'   -d '"dexp-orchestrator-consumer"'
curl -X PUT   'http://consul.swiggyops.de/v1/kv/rock-config/production/dexp-orchestrator/ONEVIEW_KAFKA_CONSUMER_COUNT?dc=swiggy-aws'   -H 'Postman-Token: 45b555be-42e3-429d-8b03-5a297b6f87e2'   -H 'X-Consul-Token: 4109e905-ca21-8101-fce2-10f640a9bd15'   -H 'cache-control: no-cache'   -d '"1"'
curl -X PUT   'http://consul.swiggyops.de/v1/kv/rock-config/production/dexp-orchestrator/ONEVIEW_KAFKA_CONSUMER_BROKERS?dc=swiggy-aws'   -H 'Postman-Token: 45b555be-42e3-429d-8b03-5a297b6f87e2'   -H 'X-Consul-Token: 4109e905-ca21-8101-fce2-10f640a9bd15'   -H 'cache-control: no-cache'   -d '"central-kafka.u4.swiggy.in:9092"'
curl -X PUT   'http://consul.swiggyops.de/v1/kv/rock-config/production/dexp-orchestrator/ONEVIEW_KAFKA_CONSUMER_TOPIC?dc=swiggy-aws'   -H 'Postman-Token: 45b555be-42e3-429d-8b03-5a297b6f87e2'   -H 'X-Consul-Token: 4109e905-ca21-8101-fce2-10f640a9bd15'   -H 'cache-control: no-cache'   -d '"oneview-agent-actions"'
curl -X PUT   'http://consul.swiggyops.de/v1/kv/rock-config/production/dexp-orchestrator/ONEVIEW_KAFKA_CONSUMER_GROUP?dc=swiggy-aws'   -H 'Postman-Token: 45b555be-42e3-429d-8b03-5a297b6f87e2'   -H 'X-Consul-Token: 4109e905-ca21-8101-fce2-10f640a9bd15'   -H 'cache-control: no-cache'   -d '"dexp-orchestrator-consumer"'
curl -X PUT   'http://consul.swiggyops.de/v1/kv/rock-config/production/dexp-orchestrator/FOUNDATION_DE_RATING_KAFKA_CONSUMER_COUNT?dc=swiggy-aws'   -H 'Postman-Token: 45b555be-42e3-429d-8b03-5a297b6f87e2'   -H 'X-Consul-Token: 4109e905-ca21-8101-fce2-10f640a9bd15'   -H 'cache-control: no-cache'   -d '"1"'
curl -X PUT   'http://consul.swiggyops.de/v1/kv/rock-config/production/dexp-orchestrator/FOUNDATION_DE_RATING_KAFKA_CONSUMER_BROKERS?dc=swiggy-aws'   -H 'Postman-Token: 45b555be-42e3-429d-8b03-5a297b6f87e2'   -H 'X-Consul-Token: 4109e905-ca21-8101-fce2-10f640a9bd15'   -H 'cache-control: no-cache'   -d '"central-kafka.u4.swiggy.in:9092"'
curl -X PUT   'http://consul.swiggyops.de/v1/kv/rock-config/production/dexp-orchestrator/FOUNDATION_DE_RATING_KAFKA_CONSUMER_TOPIC?dc=swiggy-aws'   -H 'Postman-Token: 45b555be-42e3-429d-8b03-5a297b6f87e2'   -H 'X-Consul-Token: 4109e905-ca21-8101-fce2-10f640a9bd15'   -H 'cache-control: no-cache'   -d '"sf_foundations--ratings_service--de_ratings"'
curl -X PUT   'http://consul.swiggyops.de/v1/kv/rock-config/production/dexp-orchestrator/FOUNDATION_DE_RATING__KAFKA_CONSUMER_GROUP?dc=swiggy-aws'   -H 'Postman-Token: 45b555be-42e3-429d-8b03-5a297b6f87e2'   -H 'X-Consul-Token: 4109e905-ca21-8101-fce2-10f640a9bd15'   -H 'cache-control: no-cache'   -d '"dexp-orchestrator-consumer"'
curl -X PUT   'http://consul.swiggyops.de/v1/kv/rock-config/production/dexp-orchestrator/TNS_DE_FRAUD_KAFKA_CONSUMER_COUNT?dc=swiggy-aws'   -H 'Postman-Token: 45b555be-42e3-429d-8b03-5a297b6f87e2'   -H 'X-Consul-Token: 4109e905-ca21-8101-fce2-10f640a9bd15'   -H 'cache-control: no-cache'   -d '"1"'
curl -X PUT   'http://consul.swiggyops.de/v1/kv/rock-config/production/dexp-orchestrator/TNS_DE_FRAUD_KAFKA_CONSUMER_BROKERS?dc=swiggy-aws'   -H 'Postman-Token: 45b555be-42e3-429d-8b03-5a297b6f87e2'   -H 'X-Consul-Token: 4109e905-ca21-8101-fce2-10f640a9bd15'   -H 'cache-control: no-cache'   -d '"central-kafka.u4.swiggy.in:9092"'
curl -X PUT   'http://consul.swiggyops.de/v1/kv/rock-config/production/dexp-orchestrator/TNS_DE_FRAUD_KAFKA_CONSUMER_TOPIC?dc=swiggy-aws'   -H 'Postman-Token: 45b555be-42e3-429d-8b03-5a297b6f87e2'   -H 'X-Consul-Token: 4109e905-ca21-8101-fce2-10f640a9bd15'   -H 'cache-control: no-cache'   -d '"tns-de-fraud"'
curl -X PUT   'http://consul.swiggyops.de/v1/kv/rock-config/production/dexp-orchestrator/TNS_DE_FRAUD_KAFKA_CONSUMER_GROUP?dc=swiggy-aws'   -H 'Postman-Token: 45b555be-42e3-429d-8b03-5a297b6f87e2'   -H 'X-Consul-Token: 4109e905-ca21-8101-fce2-10f640a9bd15'   -H 'cache-control: no-cache'   -d '"dexp-orchestrator-consumer"'
curl -X PUT   'http://consul.swiggyops.de/v1/kv/rock-config/production/dexp-orchestrator/NEW_RELIC_APP_NAME?dc=swiggy-aws'   -H 'Postman-Token: 45b555be-42e3-429d-8b03-5a297b6f87e2'   -H 'X-Consul-Token: 4109e905-ca21-8101-fce2-10f640a9bd15'   -H 'cache-control: no-cache'   -d '"(Staging) dexp-orchestrator"'
curl -X PUT   'http://consul.swiggyops.de/v1/kv/rock-config/production/dexp-orchestrator/HEIMDALL_TIMEOUT?dc=swiggy-aws'   -H 'Postman-Token: 45b555be-42e3-429d-8b03-5a297b6f87e2'   -H 'X-Consul-Token: 4109e905-ca21-8101-fce2-10f640a9bd15'   -H 'cache-control: no-cache'   -d '"1000"'
curl -X PUT   'http://consul.swiggyops.de/v1/kv/rock-config/production/dexp-orchestrator/HEIMDALL_MAX_CONCURRENT_REQ?dc=swiggy-aws'   -H 'Postman-Token: 45b555be-42e3-429d-8b03-5a297b6f87e2'   -H 'X-Consul-Token: 4109e905-ca21-8101-fce2-10f640a9bd15'   -H 'cache-control: no-cache'   -d '"20"'
curl -X PUT   'http://consul.swiggyops.de/v1/kv/rock-config/production/dexp-orchestrator/HEIMDALL_ERROR_PERCENT_THRESHOLD?dc=swiggy-aws'   -H 'Postman-Token: 45b555be-42e3-429d-8b03-5a297b6f87e2'   -H 'X-Consul-Token: 4109e905-ca21-8101-fce2-10f640a9bd15'   -H 'cache-control: no-cache'   -d '"100"'
curl -X PUT   'http://consul.swiggyops.de/v1/kv/rock-config/production/dexp-orchestrator/HEIMDALL_HTTP_CLIENT_TIMEOUT?dc=swiggy-aws'   -H 'Postman-Token: 45b555be-42e3-429d-8b03-5a297b6f87e2'   -H 'X-Consul-Token: 4109e905-ca21-8101-fce2-10f640a9bd15'   -H 'cache-control: no-cache'   -d '"1000"'
curl -X PUT   'http://consul.swiggyops.de/v1/kv/rock-config/production/dexp-orchestrator/HEIMDALL_HTTP_CLIENT_RETRY?dc=swiggy-aws'   -H 'Postman-Token: 45b555be-42e3-429d-8b03-5a297b6f87e2'   -H 'X-Consul-Token: 4109e905-ca21-8101-fce2-10f640a9bd15'   -H 'cache-control: no-cache'   -d '"3"'
curl -X PUT   'http://consul.swiggyops.de/v1/kv/rock-config/production/dexp-orchestrator/HEIMDALL_HTTP_CLIENT_BACKOFF?dc=swiggy-aws'   -H 'Postman-Token: 45b555be-42e3-429d-8b03-5a297b6f87e2'   -H 'X-Consul-Token: 4109e905-ca21-8101-fce2-10f640a9bd15'   -H 'cache-control: no-cache'   -d '"1000"'
curl -X PUT   'http://consul.swiggyops.de/v1/kv/rock-config/production/dexp-orchestrator/HEIMDALL_HTTP_CLIENT_JITTER?dc=swiggy-aws'   -H 'Postman-Token: 45b555be-42e3-429d-8b03-5a297b6f87e2'   -H 'X-Consul-Token: 4109e905-ca21-8101-fce2-10f640a9bd15'   -H 'cache-control: no-cache'   -d '"100"'
curl -X PUT   'http://consul.swiggyops.de/v1/kv/rock-config/production/dexp-orchestrator/DEXP_KAFKA_OSU_TOPIC?dc=swiggy-aws'   -H 'Postman-Token: 45b555be-42e3-429d-8b03-5a297b6f87e2'   -H 'X-Consul-Token: 4109e905-ca21-8101-fce2-10f640a9bd15'   -H 'cache-control: no-cache'   -d '"dexp_order_status_update"'
curl -X PUT   'http://consul.swiggyops.de/v1/kv/rock-config/production/dexp-orchestrator/DEXP_KAFKA_DE_DRIVEN_CAN_TOPIC?dc=swiggy-aws'   -H 'Postman-Token: 45b555be-42e3-429d-8b03-5a297b6f87e2'   -H 'X-Consul-Token: 4109e905-ca21-8101-fce2-10f640a9bd15'   -H 'cache-control: no-cache'   -d '"dexp_de_driven_cancellations"'
curl -X PUT   'http://consul.swiggyops.de/v1/kv/rock-config/production/dexp-orchestrator/DEXP_KAFKA_CRM_ONEVIEW_ACTION_TOPIC?dc=swiggy-aws'   -H 'Postman-Token: 45b555be-42e3-429d-8b03-5a297b6f87e2'   -H 'X-Consul-Token: 4109e905-ca21-8101-fce2-10f640a9bd15'   -H 'cache-control: no-cache'   -d '"dexp_oneview_agent_actions"'
curl -X PUT   'http://consul.swiggyops.de/v1/kv/rock-config/production/dexp-orchestrator/DEXP_KAFKA_FOUNDATION_DE_RATING_TOPIC?dc=swiggy-aws'   -H 'Postman-Token: 45b555be-42e3-429d-8b03-5a297b6f87e2'   -H 'X-Consul-Token: 4109e905-ca21-8101-fce2-10f640a9bd15'   -H 'cache-control: no-cache'   -d '"dexp_swiggy_de_ratings"'
curl -X PUT   'http://consul.swiggyops.de/v1/kv/rock-config/production/dexp-orchestrator/DEXP_KAFKA_TNS_DE_FRAUD_TOPIC?dc=swiggy-aws'   -H 'Postman-Token: 45b555be-42e3-429d-8b03-5a297b6f87e2'   -H 'X-Consul-Token: 4109e905-ca21-8101-fce2-10f640a9bd15'   -H 'cache-control: no-cache'   -d '"dexp_tns_de_fraud"'
curl -X PUT   'http://consul.swiggyops.de/v1/kv/rock-config/production/dexp-orchestrator/DEXP_KAFKA_ENABLE_OSU_PRODUCER?dc=swiggy-aws'   -H 'Postman-Token: 45b555be-42e3-429d-8b03-5a297b6f87e2'   -H 'X-Consul-Token: 4109e905-ca21-8101-fce2-10f640a9bd15'   -H 'cache-control: no-cache'   -d '"true"'
curl -X PUT   'http://consul.swiggyops.de/v1/kv/rock-config/production/dexp-orchestrator/DEXP_KAFKA_BROKERS?dc=swiggy-aws'   -H 'Postman-Token: 45b555be-42e3-429d-8b03-5a297b6f87e2'   -H 'X-Consul-Token: 4109e905-ca21-8101-fce2-10f640a9bd15'   -H 'cache-control: no-cache'   -d '"central-kafka.u4.swiggy.in:9092"'
curl -X PUT   'http://consul.swiggyops.de/v1/kv/rock-config/production/dexp-orchestrator/DEXP_KAFKA_RETRY_MAX?dc=swiggy-aws'   -H 'Postman-Token: 45b555be-42e3-429d-8b03-5a297b6f87e2'   -H 'X-Consul-Token: 4109e905-ca21-8101-fce2-10f640a9bd15'   -H 'cache-control: no-cache'   -d '"3"'
curl -X PUT   'http://consul.swiggyops.de/v1/kv/rock-config/production/dexp-orchestrator/DEXP_KAFKA_TIMEOUT_MS?dc=swiggy-aws'   -H 'Postman-Token: 45b555be-42e3-429d-8b03-5a297b6f87e2'   -H 'X-Consul-Token: 4109e905-ca21-8101-fce2-10f640a9bd15'   -H 'cache-control: no-cache'   -d '"1000"'
curl -X PUT   'http://consul.swiggyops.de/v1/kv/rock-config/production/dexp-orchestrator/DEXP_KAFKA_BATCH_SIZE?dc=swiggy-aws'   -H 'Postman-Token: 45b555be-42e3-429d-8b03-5a297b6f87e2'   -H 'X-Consul-Token: 4109e905-ca21-8101-fce2-10f640a9bd15'   -H 'cache-control: no-cache'   -d '"16000"'
curl -X PUT   'http://consul.swiggyops.de/v1/kv/rock-config/production/dexp-orchestrator/DEXP_KAFKA_LINGER_TIME_MS?dc=swiggy-aws'   -H 'Postman-Token: 45b555be-42e3-429d-8b03-5a297b6f87e2'   -H 'X-Consul-Token: 4109e905-ca21-8101-fce2-10f640a9bd15'   -H 'cache-control: no-cache'   -d '"1000"'