100878,1,2019-09-20 00:00:00,DAY
101661,1,2019-09-20 00:00:00,DAY
102299,1,2019-09-20 00:00:00,DAY
103032,1,2019-09-20 00:00:00,DAY
105182,3,2019-09-20 00:00:00,DAY
1100,2,2019-09-20 00:00:00,DAY
110105,1,2019-09-20 00:00:00,DAY
110316,1,2019-09-20 00:00:00,DAY
110769,1,2019-09-20 00:00:00,DAY
110958,1,2019-09-20 00:00:00,DAY
111225,1,2019-09-20 00:00:00,DAY
113850,1,2019-09-20 00:00:00,DAY
114278,1,2019-09-20 00:00:00,DAY
114597,1,2019-09-20 00:00:00,DAY
114987,1,2019-09-20 00:00:00,DAY
115850,1,2019-09-20 00:00:00,DAY
116086,1,2019-09-20 00:00:00,DAY
11613,1,2019-09-20 00:00:00,DAY
116403,1,2019-09-20 00:00:00,DAY
116496,1,2019-09-20 00:00:00,DAY
116532,1,2019-09-20 00:00:00,DAY
118894,1,2019-09-20 00:00:00,DAY
120614,1,2019-09-20 00:00:00,DAY
121095,1,2019-09-20 00:00:00,DAY
121905,1,2019-09-20 00:00:00,DAY
12281,1,2019-09-20 00:00:00,DAY
124792,1,2019-09-20 00:00:00,DAY
126148,1,2019-09-20 00:00:00,DAY
126899,1,2019-09-20 00:00:00,DAY
128590,1,2019-09-20 00:00:00,DAY
128644,1,2019-09-20 00:00:00,DAY
128972,1,2019-09-20 00:00:00,DAY
129618,1,2019-09-20 00:00:00,DAY
129878,1,2019-09-20 00:00:00,DAY
130579,1,2019-09-20 00:00:00,DAY
131716,1,2019-09-20 00:00:00,DAY
133387,1,2019-09-20 00:00:00,DAY
134446,1,2019-09-20 00:00:00,DAY
135507,1,2019-09-20 00:00:00,DAY
138573,1,2019-09-20 00:00:00,DAY
140426,1,2019-09-20 00:00:00,DAY
141128,1,2019-09-20 00:00:00,DAY
141202,1,2019-09-20 00:00:00,DAY
141909,1,2019-09-20 00:00:00,DAY
142587,1,2019-09-20 00:00:00,DAY
143237,1,2019-09-20 00:00:00,DAY
144089,1,2019-09-20 00:00:00,DAY
144511,1,2019-09-20 00:00:00,DAY
144687,1,2019-09-20 00:00:00,DAY
145946,1,2019-09-20 00:00:00,DAY
146548,1,2019-09-20 00:00:00,DAY
146620,1,2019-09-20 00:00:00,DAY
147401,1,2019-09-20 00:00:00,DAY
150212,1,2019-09-20 00:00:00,DAY
151030,1,2019-09-20 00:00:00,DAY
151623,1,2019-09-20 00:00:00,DAY
151920,1,2019-09-20 00:00:00,DAY
154792,1,2019-09-20 00:00:00,DAY
155380,1,2019-09-20 00:00:00,DAY
156720,1,2019-09-20 00:00:00,DAY
156749,1,2019-09-20 00:00:00,DAY
15682,1,2019-09-20 00:00:00,DAY
15686,1,2019-09-20 00:00:00,DAY
157000,1,2019-09-20 00:00:00,DAY
159984,1,2019-09-20 00:00:00,DAY
161025,1,2019-09-20 00:00:00,DAY
161472,1,2019-09-20 00:00:00,DAY
161510,1,2019-09-20 00:00:00,DAY
163347,1,2019-09-20 00:00:00,DAY
164265,1,2019-09-20 00:00:00,DAY
165572,1,2019-09-20 00:00:00,DAY
165599,1,2019-09-20 00:00:00,DAY
165902,1,2019-09-20 00:00:00,DAY
16746,1,2019-09-20 00:00:00,DAY
167928,1,2019-09-20 00:00:00,DAY
168025,1,2019-09-20 00:00:00,DAY
169932,1,2019-09-20 00:00:00,DAY
170158,1,2019-09-20 00:00:00,DAY
171666,1,2019-09-20 00:00:00,DAY
17255,1,2019-09-20 00:00:00,DAY
173120,1,2019-09-20 00:00:00,DAY
173224,1,2019-09-20 00:00:00,DAY
174131,2,2019-09-20 00:00:00,DAY
174142,1,2019-09-20 00:00:00,DAY
176121,1,2019-09-20 00:00:00,DAY
176489,1,2019-09-20 00:00:00,DAY
177208,1,2019-09-20 00:00:00,DAY
178068,1,2019-09-20 00:00:00,DAY
180637,1,2019-09-20 00:00:00,DAY
183014,1,2019-09-20 00:00:00,DAY
183475,1,2019-09-20 00:00:00,DAY
184773,1,2019-09-20 00:00:00,DAY
185287,1,2019-09-20 00:00:00,DAY
185540,1,2019-09-20 00:00:00,DAY
185607,1,2019-09-20 00:00:00,DAY
186253,1,2019-09-20 00:00:00,DAY
187843,1,2019-09-20 00:00:00,DAY
188257,1,2019-09-20 00:00:00,DAY
189178,1,2019-09-20 00:00:00,DAY
18963,1,2019-09-20 00:00:00,DAY
190574,1,2019-09-20 00:00:00,DAY
190677,1,2019-09-20 00:00:00,DAY
190692,1,2019-09-20 00:00:00,DAY
191461,1,2019-09-20 00:00:00,DAY
191545,1,2019-09-20 00:00:00,DAY
191769,1,2019-09-20 00:00:00,DAY
193285,1,2019-09-20 00:00:00,DAY
194161,1,2019-09-20 00:00:00,DAY
194732,1,2019-09-20 00:00:00,DAY
195278,1,2019-09-20 00:00:00,DAY
196204,1,2019-09-20 00:00:00,DAY
196951,1,2019-09-20 00:00:00,DAY
196993,1,2019-09-20 00:00:00,DAY
197566,1,2019-09-20 00:00:00,DAY
198920,1,2019-09-20 00:00:00,DAY
200152,1,2019-09-20 00:00:00,DAY
200710,1,2019-09-20 00:00:00,DAY
201340,1,2019-09-20 00:00:00,DAY
201727,1,2019-09-20 00:00:00,DAY
20190,1,2019-09-20 00:00:00,DAY
202664,1,2019-09-20 00:00:00,DAY
203437,1,2019-09-20 00:00:00,DAY
204084,2,2019-09-20 00:00:00,DAY
205083,1,2019-09-20 00:00:00,DAY
205120,1,2019-09-20 00:00:00,DAY
206978,1,2019-09-20 00:00:00,DAY
207708,2,2019-09-20 00:00:00,DAY
207782,1,2019-09-20 00:00:00,DAY
207792,1,2019-09-20 00:00:00,DAY
208094,1,2019-09-20 00:00:00,DAY
208676,2,2019-09-20 00:00:00,DAY
209335,1,2019-09-20 00:00:00,DAY
209435,1,2019-09-20 00:00:00,DAY
210607,1,2019-09-20 00:00:00,DAY
213690,1,2019-09-20 00:00:00,DAY
214619,1,2019-09-20 00:00:00,DAY
215105,1,2019-09-20 00:00:00,DAY
215680,1,2019-09-20 00:00:00,DAY
215815,1,2019-09-20 00:00:00,DAY
217148,1,2019-09-20 00:00:00,DAY
217351,1,2019-09-20 00:00:00,DAY
21916,1,2019-09-20 00:00:00,DAY
219167,1,2019-09-20 00:00:00,DAY
219488,1,2019-09-20 00:00:00,DAY
221737,1,2019-09-20 00:00:00,DAY
221982,1,2019-09-20 00:00:00,DAY
222389,1,2019-09-20 00:00:00,DAY
223376,1,2019-09-20 00:00:00,DAY
223559,1,2019-09-20 00:00:00,DAY
224548,1,2019-09-20 00:00:00,DAY
22515,1,2019-09-20 00:00:00,DAY
22520,1,2019-09-20 00:00:00,DAY
225493,1,2019-09-20 00:00:00,DAY
22662,1,2019-09-20 00:00:00,DAY
226768,1,2019-09-20 00:00:00,DAY
227032,1,2019-09-20 00:00:00,DAY
227242,1,2019-09-20 00:00:00,DAY
228559,1,2019-09-20 00:00:00,DAY
229144,1,2019-09-20 00:00:00,DAY
231110,1,2019-09-20 00:00:00,DAY
23162,1,2019-09-20 00:00:00,DAY
231733,1,2019-09-20 00:00:00,DAY
23268,1,2019-09-20 00:00:00,DAY
232793,1,2019-09-20 00:00:00,DAY
232854,1,2019-09-20 00:00:00,DAY
233213,1,2019-09-20 00:00:00,DAY
233362,1,2019-09-20 00:00:00,DAY
235012,1,2019-09-20 00:00:00,DAY
238660,1,2019-09-20 00:00:00,DAY
238814,1,2019-09-20 00:00:00,DAY
239198,1,2019-09-20 00:00:00,DAY
239576,1,2019-09-20 00:00:00,DAY
239907,1,2019-09-20 00:00:00,DAY
240218,1,2019-09-20 00:00:00,DAY
241171,1,2019-09-20 00:00:00,DAY
241662,1,2019-09-20 00:00:00,DAY
242971,1,2019-09-20 00:00:00,DAY
243579,1,2019-09-20 00:00:00,DAY
244121,1,2019-09-20 00:00:00,DAY
244371,1,2019-09-20 00:00:00,DAY
244493,1,2019-09-20 00:00:00,DAY
245384,1,2019-09-20 00:00:00,DAY
246345,1,2019-09-20 00:00:00,DAY
246445,1,2019-09-20 00:00:00,DAY
246694,1,2019-09-20 00:00:00,DAY
246972,2,2019-09-20 00:00:00,DAY
248528,1,2019-09-20 00:00:00,DAY
2508,2,2019-09-20 00:00:00,DAY
252525,1,2019-09-20 00:00:00,DAY
253324,1,2019-09-20 00:00:00,DAY
253748,1,2019-09-20 00:00:00,DAY
254372,1,2019-09-20 00:00:00,DAY
254473,1,2019-09-20 00:00:00,DAY
255420,1,2019-09-20 00:00:00,DAY
255530,1,2019-09-20 00:00:00,DAY
255606,1,2019-09-20 00:00:00,DAY
258230,1,2019-09-20 00:00:00,DAY
258241,1,2019-09-20 00:00:00,DAY
259176,1,2019-09-20 00:00:00,DAY
260326,1,2019-09-20 00:00:00,DAY
260720,1,2019-09-20 00:00:00,DAY
261848,1,2019-09-20 00:00:00,DAY
262731,1,2019-09-20 00:00:00,DAY
265736,1,2019-09-20 00:00:00,DAY
266540,1,2019-09-20 00:00:00,DAY
266865,1,2019-09-20 00:00:00,DAY
267954,1,2019-09-20 00:00:00,DAY
268405,1,2019-09-20 00:00:00,DAY
268660,1,2019-09-20 00:00:00,DAY
269262,1,2019-09-20 00:00:00,DAY
26950,1,2019-09-20 00:00:00,DAY
269798,1,2019-09-20 00:00:00,DAY
270594,1,2019-09-20 00:00:00,DAY
270725,1,2019-09-20 00:00:00,DAY
272714,1,2019-09-20 00:00:00,DAY
273290,1,2019-09-20 00:00:00,DAY
273331,1,2019-09-20 00:00:00,DAY
27477,1,2019-09-20 00:00:00,DAY
275245,1,2019-09-20 00:00:00,DAY
275515,1,2019-09-20 00:00:00,DAY
275583,1,2019-09-20 00:00:00,DAY
276857,1,2019-09-20 00:00:00,DAY
277066,1,2019-09-20 00:00:00,DAY
277210,1,2019-09-20 00:00:00,DAY
2790,1,2019-09-20 00:00:00,DAY
279650,1,2019-09-20 00:00:00,DAY
280191,1,2019-09-20 00:00:00,DAY
281628,1,2019-09-20 00:00:00,DAY
286988,1,2019-09-20 00:00:00,DAY
287272,1,2019-09-20 00:00:00,DAY
288236,1,2019-09-20 00:00:00,DAY
289021,1,2019-09-20 00:00:00,DAY
289141,1,2019-09-20 00:00:00,DAY
28996,1,2019-09-20 00:00:00,DAY
291342,1,2019-09-20 00:00:00,DAY
293036,1,2019-09-20 00:00:00,DAY
294053,1,2019-09-20 00:00:00,DAY
295141,1,2019-09-20 00:00:00,DAY
295908,1,2019-09-20 00:00:00,DAY
296421,1,2019-09-20 00:00:00,DAY
298651,1,2019-09-20 00:00:00,DAY
301662,1,2019-09-20 00:00:00,DAY
302958,1,2019-09-20 00:00:00,DAY
303085,1,2019-09-20 00:00:00,DAY
304058,1,2019-09-20 00:00:00,DAY
304269,1,2019-09-20 00:00:00,DAY
304283,1,2019-09-20 00:00:00,DAY
305455,1,2019-09-20 00:00:00,DAY
305953,2,2019-09-20 00:00:00,DAY
308407,1,2019-09-20 00:00:00,DAY
308534,2,2019-09-20 00:00:00,DAY
309598,1,2019-09-20 00:00:00,DAY
309961,1,2019-09-20 00:00:00,DAY
310617,1,2019-09-20 00:00:00,DAY
311360,1,2019-09-20 00:00:00,DAY
314761,1,2019-09-20 00:00:00,DAY
315845,1,2019-09-20 00:00:00,DAY
317559,1,2019-09-20 00:00:00,DAY
319852,1,2019-09-20 00:00:00,DAY
320236,1,2019-09-20 00:00:00,DAY
320905,1,2019-09-20 00:00:00,DAY
321064,1,2019-09-20 00:00:00,DAY
321529,1,2019-09-20 00:00:00,DAY
322061,1,2019-09-20 00:00:00,DAY
322238,1,2019-09-20 00:00:00,DAY
322816,1,2019-09-20 00:00:00,DAY
322918,1,2019-09-20 00:00:00,DAY
323439,1,2019-09-20 00:00:00,DAY
324222,1,2019-09-20 00:00:00,DAY
324431,1,2019-09-20 00:00:00,DAY
325198,1,2019-09-20 00:00:00,DAY
327469,1,2019-09-20 00:00:00,DAY
329241,1,2019-09-20 00:00:00,DAY
32972,1,2019-09-20 00:00:00,DAY
329808,1,2019-09-20 00:00:00,DAY
329983,1,2019-09-20 00:00:00,DAY
330065,1,2019-09-20 00:00:00,DAY
33021,1,2019-09-20 00:00:00,DAY
330558,1,2019-09-20 00:00:00,DAY
330740,1,2019-09-20 00:00:00,DAY
331262,1,2019-09-20 00:00:00,DAY
331300,1,2019-09-20 00:00:00,DAY
331909,1,2019-09-20 00:00:00,DAY
332491,1,2019-09-20 00:00:00,DAY
332522,2,2019-09-20 00:00:00,DAY
332644,1,2019-09-20 00:00:00,DAY
333128,1,2019-09-20 00:00:00,DAY
335415,1,2019-09-20 00:00:00,DAY
336158,1,2019-09-20 00:00:00,DAY
336787,1,2019-09-20 00:00:00,DAY
337344,1,2019-09-20 00:00:00,DAY
338352,1,2019-09-20 00:00:00,DAY
339560,1,2019-09-20 00:00:00,DAY
340356,1,2019-09-20 00:00:00,DAY
340831,1,2019-09-20 00:00:00,DAY
341194,1,2019-09-20 00:00:00,DAY
342731,1,2019-09-20 00:00:00,DAY
343283,1,2019-09-20 00:00:00,DAY
343421,1,2019-09-20 00:00:00,DAY
343777,1,2019-09-20 00:00:00,DAY
344940,1,2019-09-20 00:00:00,DAY
345174,1,2019-09-20 00:00:00,DAY
345240,1,2019-09-20 00:00:00,DAY
345476,2,2019-09-20 00:00:00,DAY
347027,1,2019-09-20 00:00:00,DAY
347051,1,2019-09-20 00:00:00,DAY
348107,1,2019-09-20 00:00:00,DAY
348580,1,2019-09-20 00:00:00,DAY
348675,2,2019-09-20 00:00:00,DAY
349082,2,2019-09-20 00:00:00,DAY
350609,1,2019-09-20 00:00:00,DAY
350666,1,2019-09-20 00:00:00,DAY
350858,1,2019-09-20 00:00:00,DAY
351892,1,2019-09-20 00:00:00,DAY
352420,1,2019-09-20 00:00:00,DAY
35268,1,2019-09-20 00:00:00,DAY
353619,1,2019-09-20 00:00:00,DAY
355564,1,2019-09-20 00:00:00,DAY
355621,1,2019-09-20 00:00:00,DAY
355898,1,2019-09-20 00:00:00,DAY
358322,1,2019-09-20 00:00:00,DAY
359309,1,2019-09-20 00:00:00,DAY
359473,1,2019-09-20 00:00:00,DAY
35982,1,2019-09-20 00:00:00,DAY
360317,1,2019-09-20 00:00:00,DAY
361120,1,2019-09-20 00:00:00,DAY
361294,1,2019-09-20 00:00:00,DAY
361662,1,2019-09-20 00:00:00,DAY
361879,1,2019-09-20 00:00:00,DAY
362610,2,2019-09-20 00:00:00,DAY
364324,1,2019-09-20 00:00:00,DAY
364652,1,2019-09-20 00:00:00,DAY
364937,1,2019-09-20 00:00:00,DAY
365015,1,2019-09-20 00:00:00,DAY
365193,1,2019-09-20 00:00:00,DAY
365301,1,2019-09-20 00:00:00,DAY
366411,1,2019-09-20 00:00:00,DAY
367277,1,2019-09-20 00:00:00,DAY
367606,1,2019-09-20 00:00:00,DAY
36809,1,2019-09-20 00:00:00,DAY
36965,1,2019-09-20 00:00:00,DAY
370020,1,2019-09-20 00:00:00,DAY
370055,1,2019-09-20 00:00:00,DAY
370133,1,2019-09-20 00:00:00,DAY
370422,1,2019-09-20 00:00:00,DAY
370659,1,2019-09-20 00:00:00,DAY
371174,1,2019-09-20 00:00:00,DAY
372232,1,2019-09-20 00:00:00,DAY
372286,1,2019-09-20 00:00:00,DAY
373046,1,2019-09-20 00:00:00,DAY
373149,1,2019-09-20 00:00:00,DAY
373889,1,2019-09-20 00:00:00,DAY
373891,1,2019-09-20 00:00:00,DAY
374455,1,2019-09-20 00:00:00,DAY
374571,1,2019-09-20 00:00:00,DAY
374782,1,2019-09-20 00:00:00,DAY
374935,1,2019-09-20 00:00:00,DAY
375688,1,2019-09-20 00:00:00,DAY
377034,1,2019-09-20 00:00:00,DAY
377035,2,2019-09-20 00:00:00,DAY
377201,1,2019-09-20 00:00:00,DAY
377517,1,2019-09-20 00:00:00,DAY
377674,1,2019-09-20 00:00:00,DAY
377747,1,2019-09-20 00:00:00,DAY
378182,1,2019-09-20 00:00:00,DAY
378190,1,2019-09-20 00:00:00,DAY
379843,1,2019-09-20 00:00:00,DAY
380444,1,2019-09-20 00:00:00,DAY
382790,1,2019-09-20 00:00:00,DAY
383828,1,2019-09-20 00:00:00,DAY
384245,1,2019-09-20 00:00:00,DAY
384446,1,2019-09-20 00:00:00,DAY
386925,1,2019-09-20 00:00:00,DAY
386929,1,2019-09-20 00:00:00,DAY
388862,1,2019-09-20 00:00:00,DAY
389344,1,2019-09-20 00:00:00,DAY
389910,4,2019-09-20 00:00:00,DAY
391302,1,2019-09-20 00:00:00,DAY
391661,1,2019-09-20 00:00:00,DAY
391926,1,2019-09-20 00:00:00,DAY
393512,1,2019-09-20 00:00:00,DAY
393865,1,2019-09-20 00:00:00,DAY
394255,4,2019-09-20 00:00:00,DAY
394571,1,2019-09-20 00:00:00,DAY
395400,1,2019-09-20 00:00:00,DAY
396256,1,2019-09-20 00:00:00,DAY
398149,1,2019-09-20 00:00:00,DAY
398811,1,2019-09-20 00:00:00,DAY
399241,1,2019-09-20 00:00:00,DAY
399343,1,2019-09-20 00:00:00,DAY
399374,1,2019-09-20 00:00:00,DAY
399845,1,2019-09-20 00:00:00,DAY
400289,1,2019-09-20 00:00:00,DAY
400393,2,2019-09-20 00:00:00,DAY
402880,1,2019-09-20 00:00:00,DAY
404278,1,2019-09-20 00:00:00,DAY
404452,1,2019-09-20 00:00:00,DAY
405677,1,2019-09-20 00:00:00,DAY
406045,1,2019-09-20 00:00:00,DAY
40627,1,2019-09-20 00:00:00,DAY
406549,1,2019-09-20 00:00:00,DAY
406904,1,2019-09-20 00:00:00,DAY
408623,1,2019-09-20 00:00:00,DAY
408898,1,2019-09-20 00:00:00,DAY
409366,1,2019-09-20 00:00:00,DAY
410003,1,2019-09-20 00:00:00,DAY
41066,1,2019-09-20 00:00:00,DAY
41179,1,2019-09-20 00:00:00,DAY
412067,1,2019-09-20 00:00:00,DAY
412282,1,2019-09-20 00:00:00,DAY
412699,1,2019-09-20 00:00:00,DAY
413026,1,2019-09-20 00:00:00,DAY
413857,1,2019-09-20 00:00:00,DAY
414918,1,2019-09-20 00:00:00,DAY
415176,1,2019-09-20 00:00:00,DAY
415797,1,2019-09-20 00:00:00,DAY
415973,1,2019-09-20 00:00:00,DAY
415977,1,2019-09-20 00:00:00,DAY
416146,1,2019-09-20 00:00:00,DAY
417030,1,2019-09-20 00:00:00,DAY
417578,1,2019-09-20 00:00:00,DAY
417836,1,2019-09-20 00:00:00,DAY
418115,1,2019-09-20 00:00:00,DAY
419334,1,2019-09-20 00:00:00,DAY
419647,1,2019-09-20 00:00:00,DAY
42088,1,2019-09-20 00:00:00,DAY
423111,1,2019-09-20 00:00:00,DAY
424662,1,2019-09-20 00:00:00,DAY
428080,1,2019-09-20 00:00:00,DAY
42890,1,2019-09-20 00:00:00,DAY
429359,1,2019-09-20 00:00:00,DAY
430721,1,2019-09-20 00:00:00,DAY
431405,1,2019-09-20 00:00:00,DAY
431886,1,2019-09-20 00:00:00,DAY
432243,1,2019-09-20 00:00:00,DAY
432261,1,2019-09-20 00:00:00,DAY
432922,1,2019-09-20 00:00:00,DAY
43502,1,2019-09-20 00:00:00,DAY
437598,1,2019-09-20 00:00:00,DAY
438209,1,2019-09-20 00:00:00,DAY
440519,1,2019-09-20 00:00:00,DAY
442082,1,2019-09-20 00:00:00,DAY
443052,1,2019-09-20 00:00:00,DAY
44472,1,2019-09-20 00:00:00,DAY
445680,1,2019-09-20 00:00:00,DAY
446759,1,2019-09-20 00:00:00,DAY
447038,1,2019-09-20 00:00:00,DAY
447081,1,2019-09-20 00:00:00,DAY
447251,2,2019-09-20 00:00:00,DAY
447865,1,2019-09-20 00:00:00,DAY
448370,1,2019-09-20 00:00:00,DAY
448673,1,2019-09-20 00:00:00,DAY
449003,2,2019-09-20 00:00:00,DAY
449201,1,2019-09-20 00:00:00,DAY
449506,1,2019-09-20 00:00:00,DAY
450340,1,2019-09-20 00:00:00,DAY
450564,1,2019-09-20 00:00:00,DAY
450700,1,2019-09-20 00:00:00,DAY
450883,1,2019-09-20 00:00:00,DAY
451611,2,2019-09-20 00:00:00,DAY
451768,1,2019-09-20 00:00:00,DAY
452183,2,2019-09-20 00:00:00,DAY
455249,1,2019-09-20 00:00:00,DAY
456482,1,2019-09-20 00:00:00,DAY
457479,1,2019-09-20 00:00:00,DAY
457583,1,2019-09-20 00:00:00,DAY
458618,1,2019-09-20 00:00:00,DAY
458880,1,2019-09-20 00:00:00,DAY
459775,1,2019-09-20 00:00:00,DAY
459852,1,2019-09-20 00:00:00,DAY
46023,1,2019-09-20 00:00:00,DAY
46058,1,2019-09-20 00:00:00,DAY
461428,1,2019-09-20 00:00:00,DAY
461541,1,2019-09-20 00:00:00,DAY
462227,1,2019-09-20 00:00:00,DAY
464233,1,2019-09-20 00:00:00,DAY
465784,1,2019-09-20 00:00:00,DAY
46857,1,2019-09-20 00:00:00,DAY
469117,1,2019-09-20 00:00:00,DAY
470216,1,2019-09-20 00:00:00,DAY
470967,1,2019-09-20 00:00:00,DAY
472514,1,2019-09-20 00:00:00,DAY
473417,1,2019-09-20 00:00:00,DAY
474581,1,2019-09-20 00:00:00,DAY
475013,1,2019-09-20 00:00:00,DAY
475224,1,2019-09-20 00:00:00,DAY
475847,1,2019-09-20 00:00:00,DAY
476367,1,2019-09-20 00:00:00,DAY
477007,1,2019-09-20 00:00:00,DAY
477100,1,2019-09-20 00:00:00,DAY
477992,1,2019-09-20 00:00:00,DAY
47882,1,2019-09-20 00:00:00,DAY
479750,1,2019-09-20 00:00:00,DAY
481024,1,2019-09-20 00:00:00,DAY
482049,1,2019-09-20 00:00:00,DAY
482316,2,2019-09-20 00:00:00,DAY
482929,1,2019-09-20 00:00:00,DAY
483657,1,2019-09-20 00:00:00,DAY
483888,1,2019-09-20 00:00:00,DAY
484501,1,2019-09-20 00:00:00,DAY
484681,1,2019-09-20 00:00:00,DAY
485145,1,2019-09-20 00:00:00,DAY
486181,1,2019-09-20 00:00:00,DAY
486276,1,2019-09-20 00:00:00,DAY
486574,1,2019-09-20 00:00:00,DAY
486809,1,2019-09-20 00:00:00,DAY
488096,1,2019-09-20 00:00:00,DAY
488511,1,2019-09-20 00:00:00,DAY
489041,1,2019-09-20 00:00:00,DAY
489558,1,2019-09-20 00:00:00,DAY
489597,2,2019-09-20 00:00:00,DAY
490155,1,2019-09-20 00:00:00,DAY
490558,1,2019-09-20 00:00:00,DAY
491696,1,2019-09-20 00:00:00,DAY
491796,1,2019-09-20 00:00:00,DAY
492234,1,2019-09-20 00:00:00,DAY
492863,1,2019-09-20 00:00:00,DAY
492889,1,2019-09-20 00:00:00,DAY
494202,1,2019-09-20 00:00:00,DAY
494683,1,2019-09-20 00:00:00,DAY
494970,1,2019-09-20 00:00:00,DAY
495106,1,2019-09-20 00:00:00,DAY
495210,1,2019-09-20 00:00:00,DAY
496557,1,2019-09-20 00:00:00,DAY
499355,1,2019-09-20 00:00:00,DAY
499752,1,2019-09-20 00:00:00,DAY
499873,1,2019-09-20 00:00:00,DAY
501077,1,2019-09-20 00:00:00,DAY
501228,2,2019-09-20 00:00:00,DAY
501630,1,2019-09-20 00:00:00,DAY
50304,1,2019-09-20 00:00:00,DAY
503407,1,2019-09-20 00:00:00,DAY
504375,1,2019-09-20 00:00:00,DAY
504809,1,2019-09-20 00:00:00,DAY
50513,1,2019-09-20 00:00:00,DAY
507063,2,2019-09-20 00:00:00,DAY
507876,1,2019-09-20 00:00:00,DAY
507937,1,2019-09-20 00:00:00,DAY
508769,1,2019-09-20 00:00:00,DAY
508963,1,2019-09-20 00:00:00,DAY
509311,1,2019-09-20 00:00:00,DAY
509421,1,2019-09-20 00:00:00,DAY
509581,1,2019-09-20 00:00:00,DAY
510812,1,2019-09-20 00:00:00,DAY
511345,1,2019-09-20 00:00:00,DAY
511578,1,2019-09-20 00:00:00,DAY
511643,1,2019-09-20 00:00:00,DAY
511801,1,2019-09-20 00:00:00,DAY
512536,1,2019-09-20 00:00:00,DAY
512615,1,2019-09-20 00:00:00,DAY
513125,2,2019-09-20 00:00:00,DAY
513214,1,2019-09-20 00:00:00,DAY
513272,1,2019-09-20 00:00:00,DAY
513621,1,2019-09-20 00:00:00,DAY
513681,1,2019-09-20 00:00:00,DAY
513818,1,2019-09-20 00:00:00,DAY
514191,1,2019-09-20 00:00:00,DAY
514814,1,2019-09-20 00:00:00,DAY
515303,1,2019-09-20 00:00:00,DAY
516016,1,2019-09-20 00:00:00,DAY
516649,1,2019-09-20 00:00:00,DAY
517445,1,2019-09-20 00:00:00,DAY
517573,1,2019-09-20 00:00:00,DAY
517733,1,2019-09-20 00:00:00,DAY
517737,1,2019-09-20 00:00:00,DAY
518346,1,2019-09-20 00:00:00,DAY
518604,1,2019-09-20 00:00:00,DAY
519647,1,2019-09-20 00:00:00,DAY
519660,1,2019-09-20 00:00:00,DAY
520795,1,2019-09-20 00:00:00,DAY
520977,1,2019-09-20 00:00:00,DAY
520982,1,2019-09-20 00:00:00,DAY
521748,1,2019-09-20 00:00:00,DAY
522054,1,2019-09-20 00:00:00,DAY
522089,1,2019-09-20 00:00:00,DAY
522418,1,2019-09-20 00:00:00,DAY
522621,1,2019-09-20 00:00:00,DAY
523039,1,2019-09-20 00:00:00,DAY
523106,1,2019-09-20 00:00:00,DAY
523454,1,2019-09-20 00:00:00,DAY
523920,1,2019-09-20 00:00:00,DAY
524010,1,2019-09-20 00:00:00,DAY
524168,1,2019-09-20 00:00:00,DAY
524298,1,2019-09-20 00:00:00,DAY
524614,1,2019-09-20 00:00:00,DAY
524635,1,2019-09-20 00:00:00,DAY
524697,1,2019-09-20 00:00:00,DAY
524982,1,2019-09-20 00:00:00,DAY
525695,1,2019-09-20 00:00:00,DAY
527575,1,2019-09-20 00:00:00,DAY
528019,1,2019-09-20 00:00:00,DAY
528088,1,2019-09-20 00:00:00,DAY
528413,1,2019-09-20 00:00:00,DAY
528909,1,2019-09-20 00:00:00,DAY
529084,1,2019-09-20 00:00:00,DAY
529331,1,2019-09-20 00:00:00,DAY
529387,1,2019-09-20 00:00:00,DAY
531168,1,2019-09-20 00:00:00,DAY
531193,1,2019-09-20 00:00:00,DAY
531257,1,2019-09-20 00:00:00,DAY
531337,1,2019-09-20 00:00:00,DAY
531419,1,2019-09-20 00:00:00,DAY
532655,1,2019-09-20 00:00:00,DAY
533070,1,2019-09-20 00:00:00,DAY
534370,1,2019-09-20 00:00:00,DAY
534411,1,2019-09-20 00:00:00,DAY
534518,1,2019-09-20 00:00:00,DAY
534549,1,2019-09-20 00:00:00,DAY
534965,1,2019-09-20 00:00:00,DAY
535045,1,2019-09-20 00:00:00,DAY
535320,1,2019-09-20 00:00:00,DAY
535442,1,2019-09-20 00:00:00,DAY
536744,1,2019-09-20 00:00:00,DAY
536937,1,2019-09-20 00:00:00,DAY
536987,1,2019-09-20 00:00:00,DAY
537573,1,2019-09-20 00:00:00,DAY
538211,1,2019-09-20 00:00:00,DAY
538420,1,2019-09-20 00:00:00,DAY
538724,1,2019-09-20 00:00:00,DAY
538748,2,2019-09-20 00:00:00,DAY
539057,1,2019-09-20 00:00:00,DAY
539414,1,2019-09-20 00:00:00,DAY
539784,1,2019-09-20 00:00:00,DAY
540569,1,2019-09-20 00:00:00,DAY
540657,1,2019-09-20 00:00:00,DAY
540724,1,2019-09-20 00:00:00,DAY
540748,1,2019-09-20 00:00:00,DAY
541751,1,2019-09-20 00:00:00,DAY
541994,1,2019-09-20 00:00:00,DAY
542628,1,2019-09-20 00:00:00,DAY
543478,1,2019-09-20 00:00:00,DAY
543907,1,2019-09-20 00:00:00,DAY
544188,1,2019-09-20 00:00:00,DAY
544710,1,2019-09-20 00:00:00,DAY
545200,1,2019-09-20 00:00:00,DAY
546277,1,2019-09-20 00:00:00,DAY
546857,1,2019-09-20 00:00:00,DAY
547274,1,2019-09-20 00:00:00,DAY
548402,1,2019-09-20 00:00:00,DAY
549441,2,2019-09-20 00:00:00,DAY
550248,1,2019-09-20 00:00:00,DAY
550255,1,2019-09-20 00:00:00,DAY
550463,1,2019-09-20 00:00:00,DAY
550516,1,2019-09-20 00:00:00,DAY
550545,1,2019-09-20 00:00:00,DAY
551222,1,2019-09-20 00:00:00,DAY
551237,1,2019-09-20 00:00:00,DAY
551373,1,2019-09-20 00:00:00,DAY
551388,1,2019-09-20 00:00:00,DAY
552179,1,2019-09-20 00:00:00,DAY
552832,1,2019-09-20 00:00:00,DAY
553274,2,2019-09-20 00:00:00,DAY
553285,1,2019-09-20 00:00:00,DAY
554671,1,2019-09-20 00:00:00,DAY
554945,1,2019-09-20 00:00:00,DAY
55561,1,2019-09-20 00:00:00,DAY
556659,1,2019-09-20 00:00:00,DAY
556843,1,2019-09-20 00:00:00,DAY
556934,2,2019-09-20 00:00:00,DAY
557303,2,2019-09-20 00:00:00,DAY
557507,2,2019-09-20 00:00:00,DAY
557947,1,2019-09-20 00:00:00,DAY
557993,1,2019-09-20 00:00:00,DAY
558085,1,2019-09-20 00:00:00,DAY
558096,1,2019-09-20 00:00:00,DAY
558144,1,2019-09-20 00:00:00,DAY
558912,1,2019-09-20 00:00:00,DAY
558931,1,2019-09-20 00:00:00,DAY
559247,1,2019-09-20 00:00:00,DAY
560059,1,2019-09-20 00:00:00,DAY
560086,1,2019-09-20 00:00:00,DAY
561114,1,2019-09-20 00:00:00,DAY
561384,1,2019-09-20 00:00:00,DAY
562043,1,2019-09-20 00:00:00,DAY
563006,1,2019-09-20 00:00:00,DAY
563451,1,2019-09-20 00:00:00,DAY
564105,1,2019-09-20 00:00:00,DAY
565128,2,2019-09-20 00:00:00,DAY
565294,1,2019-09-20 00:00:00,DAY
566474,1,2019-09-20 00:00:00,DAY
567090,1,2019-09-20 00:00:00,DAY
567757,1,2019-09-20 00:00:00,DAY
567837,1,2019-09-20 00:00:00,DAY
567899,1,2019-09-20 00:00:00,DAY
567958,1,2019-09-20 00:00:00,DAY
567978,1,2019-09-20 00:00:00,DAY
569373,1,2019-09-20 00:00:00,DAY
569572,1,2019-09-20 00:00:00,DAY
5700,1,2019-09-20 00:00:00,DAY
570439,1,2019-09-20 00:00:00,DAY
570802,1,2019-09-20 00:00:00,DAY
571076,1,2019-09-20 00:00:00,DAY
571509,1,2019-09-20 00:00:00,DAY
57219,1,2019-09-20 00:00:00,DAY
572311,1,2019-09-20 00:00:00,DAY
572360,1,2019-09-20 00:00:00,DAY
572579,1,2019-09-20 00:00:00,DAY
572580,1,2019-09-20 00:00:00,DAY
573430,1,2019-09-20 00:00:00,DAY
574119,1,2019-09-20 00:00:00,DAY
574485,1,2019-09-20 00:00:00,DAY
574852,1,2019-09-20 00:00:00,DAY
575439,1,2019-09-20 00:00:00,DAY
576295,1,2019-09-20 00:00:00,DAY
577037,1,2019-09-20 00:00:00,DAY
577340,1,2019-09-20 00:00:00,DAY
578097,1,2019-09-20 00:00:00,DAY
578109,1,2019-09-20 00:00:00,DAY
580059,1,2019-09-20 00:00:00,DAY
580541,1,2019-09-20 00:00:00,DAY
580687,1,2019-09-20 00:00:00,DAY
581011,1,2019-09-20 00:00:00,DAY
581042,1,2019-09-20 00:00:00,DAY
581056,1,2019-09-20 00:00:00,DAY
581141,1,2019-09-20 00:00:00,DAY
581342,1,2019-09-20 00:00:00,DAY
581572,1,2019-09-20 00:00:00,DAY
581960,1,2019-09-20 00:00:00,DAY
582261,1,2019-09-20 00:00:00,DAY
582568,1,2019-09-20 00:00:00,DAY
583165,2,2019-09-20 00:00:00,DAY
583604,1,2019-09-20 00:00:00,DAY
583606,1,2019-09-20 00:00:00,DAY
583693,1,2019-09-20 00:00:00,DAY
584369,2,2019-09-20 00:00:00,DAY
584406,1,2019-09-20 00:00:00,DAY
5845,1,2019-09-20 00:00:00,DAY
584619,1,2019-09-20 00:00:00,DAY
584815,1,2019-09-20 00:00:00,DAY
585548,1,2019-09-20 00:00:00,DAY
586347,1,2019-09-20 00:00:00,DAY
586593,1,2019-09-20 00:00:00,DAY
586744,1,2019-09-20 00:00:00,DAY
586943,1,2019-09-20 00:00:00,DAY
586986,1,2019-09-20 00:00:00,DAY
587085,1,2019-09-20 00:00:00,DAY
587136,1,2019-09-20 00:00:00,DAY
587435,1,2019-09-20 00:00:00,DAY
587657,1,2019-09-20 00:00:00,DAY
587834,1,2019-09-20 00:00:00,DAY
587906,1,2019-09-20 00:00:00,DAY
587996,1,2019-09-20 00:00:00,DAY
588954,1,2019-09-20 00:00:00,DAY
589032,1,2019-09-20 00:00:00,DAY
589320,1,2019-09-20 00:00:00,DAY
589475,1,2019-09-20 00:00:00,DAY
589606,1,2019-09-20 00:00:00,DAY
590587,1,2019-09-20 00:00:00,DAY
590924,2,2019-09-20 00:00:00,DAY
591190,1,2019-09-20 00:00:00,DAY
59194,1,2019-09-20 00:00:00,DAY
593845,1,2019-09-20 00:00:00,DAY
593998,1,2019-09-20 00:00:00,DAY
594444,2,2019-09-20 00:00:00,DAY
594472,1,2019-09-20 00:00:00,DAY
594517,1,2019-09-20 00:00:00,DAY
595495,1,2019-09-20 00:00:00,DAY
595815,1,2019-09-20 00:00:00,DAY
595960,1,2019-09-20 00:00:00,DAY
597048,1,2019-09-20 00:00:00,DAY
597336,1,2019-09-20 00:00:00,DAY
598061,2,2019-09-20 00:00:00,DAY
598558,1,2019-09-20 00:00:00,DAY
598627,1,2019-09-20 00:00:00,DAY
598850,1,2019-09-20 00:00:00,DAY
599452,1,2019-09-20 00:00:00,DAY
599782,1,2019-09-20 00:00:00,DAY
599965,1,2019-09-20 00:00:00,DAY
601293,1,2019-09-20 00:00:00,DAY
601870,1,2019-09-20 00:00:00,DAY
602118,1,2019-09-20 00:00:00,DAY
602246,1,2019-09-20 00:00:00,DAY
602776,1,2019-09-20 00:00:00,DAY
602867,1,2019-09-20 00:00:00,DAY
603040,1,2019-09-20 00:00:00,DAY
60345,1,2019-09-20 00:00:00,DAY
604127,1,2019-09-20 00:00:00,DAY
605348,2,2019-09-20 00:00:00,DAY
605968,1,2019-09-20 00:00:00,DAY
606143,2,2019-09-20 00:00:00,DAY
607937,1,2019-09-20 00:00:00,DAY
607994,1,2019-09-20 00:00:00,DAY
608089,2,2019-09-20 00:00:00,DAY
608255,1,2019-09-20 00:00:00,DAY
608299,1,2019-09-20 00:00:00,DAY
60838,1,2019-09-20 00:00:00,DAY
608954,2,2019-09-20 00:00:00,DAY
609391,1,2019-09-20 00:00:00,DAY
610332,1,2019-09-20 00:00:00,DAY
610350,1,2019-09-20 00:00:00,DAY
610755,1,2019-09-20 00:00:00,DAY
610846,1,2019-09-20 00:00:00,DAY
611126,1,2019-09-20 00:00:00,DAY
611254,1,2019-09-20 00:00:00,DAY
611505,1,2019-09-20 00:00:00,DAY
611795,1,2019-09-20 00:00:00,DAY
612318,1,2019-09-20 00:00:00,DAY
612626,1,2019-09-20 00:00:00,DAY
612659,1,2019-09-20 00:00:00,DAY
612742,1,2019-09-20 00:00:00,DAY
614250,1,2019-09-20 00:00:00,DAY
614387,3,2019-09-20 00:00:00,DAY
614759,1,2019-09-20 00:00:00,DAY
614949,1,2019-09-20 00:00:00,DAY
615683,1,2019-09-20 00:00:00,DAY
616229,1,2019-09-20 00:00:00,DAY
616946,1,2019-09-20 00:00:00,DAY
617358,1,2019-09-20 00:00:00,DAY
617545,1,2019-09-20 00:00:00,DAY
61763,1,2019-09-20 00:00:00,DAY
61784,1,2019-09-20 00:00:00,DAY
619205,1,2019-09-20 00:00:00,DAY
619357,1,2019-09-20 00:00:00,DAY
619375,1,2019-09-20 00:00:00,DAY
619431,1,2019-09-20 00:00:00,DAY
620189,1,2019-09-20 00:00:00,DAY
620467,1,2019-09-20 00:00:00,DAY
620757,1,2019-09-20 00:00:00,DAY
620830,1,2019-09-20 00:00:00,DAY
622229,1,2019-09-20 00:00:00,DAY
622389,1,2019-09-20 00:00:00,DAY
622723,1,2019-09-20 00:00:00,DAY
623046,1,2019-09-20 00:00:00,DAY
623057,1,2019-09-20 00:00:00,DAY
623130,1,2019-09-20 00:00:00,DAY
623134,3,2019-09-20 00:00:00,DAY
624423,1,2019-09-20 00:00:00,DAY
624426,1,2019-09-20 00:00:00,DAY
625392,1,2019-09-20 00:00:00,DAY
625731,1,2019-09-20 00:00:00,DAY
625762,1,2019-09-20 00:00:00,DAY
625789,1,2019-09-20 00:00:00,DAY
625806,1,2019-09-20 00:00:00,DAY
626591,1,2019-09-20 00:00:00,DAY
626687,1,2019-09-20 00:00:00,DAY
627339,1,2019-09-20 00:00:00,DAY
627534,1,2019-09-20 00:00:00,DAY
627633,1,2019-09-20 00:00:00,DAY
627941,1,2019-09-20 00:00:00,DAY
628165,1,2019-09-20 00:00:00,DAY
628447,1,2019-09-20 00:00:00,DAY
628824,1,2019-09-20 00:00:00,DAY
629719,1,2019-09-20 00:00:00,DAY
629802,1,2019-09-20 00:00:00,DAY
630254,2,2019-09-20 00:00:00,DAY
630322,2,2019-09-20 00:00:00,DAY
630339,1,2019-09-20 00:00:00,DAY
630545,1,2019-09-20 00:00:00,DAY
631595,1,2019-09-20 00:00:00,DAY
631996,1,2019-09-20 00:00:00,DAY
632183,1,2019-09-20 00:00:00,DAY
632340,1,2019-09-20 00:00:00,DAY
632918,1,2019-09-20 00:00:00,DAY
633311,1,2019-09-20 00:00:00,DAY
633503,1,2019-09-20 00:00:00,DAY
633654,1,2019-09-20 00:00:00,DAY
634620,1,2019-09-20 00:00:00,DAY
634713,1,2019-09-20 00:00:00,DAY
636295,1,2019-09-20 00:00:00,DAY
636326,1,2019-09-20 00:00:00,DAY
636425,1,2019-09-20 00:00:00,DAY
636657,1,2019-09-20 00:00:00,DAY
636802,1,2019-09-20 00:00:00,DAY
637142,1,2019-09-20 00:00:00,DAY
637931,1,2019-09-20 00:00:00,DAY
638006,1,2019-09-20 00:00:00,DAY
638295,1,2019-09-20 00:00:00,DAY
638492,1,2019-09-20 00:00:00,DAY
638598,1,2019-09-20 00:00:00,DAY
638659,1,2019-09-20 00:00:00,DAY
638674,1,2019-09-20 00:00:00,DAY
638763,1,2019-09-20 00:00:00,DAY
638940,2,2019-09-20 00:00:00,DAY
6395,1,2019-09-20 00:00:00,DAY
639601,4,2019-09-20 00:00:00,DAY
640315,1,2019-09-20 00:00:00,DAY
640484,1,2019-09-20 00:00:00,DAY
641483,1,2019-09-20 00:00:00,DAY
641576,1,2019-09-20 00:00:00,DAY
642009,1,2019-09-20 00:00:00,DAY
642166,1,2019-09-20 00:00:00,DAY
642442,1,2019-09-20 00:00:00,DAY
642760,1,2019-09-20 00:00:00,DAY
643010,1,2019-09-20 00:00:00,DAY
643055,1,2019-09-20 00:00:00,DAY
643249,1,2019-09-20 00:00:00,DAY
643260,1,2019-09-20 00:00:00,DAY
643351,1,2019-09-20 00:00:00,DAY
643555,1,2019-09-20 00:00:00,DAY
645020,1,2019-09-20 00:00:00,DAY
645727,2,2019-09-20 00:00:00,DAY
646105,1,2019-09-20 00:00:00,DAY
646383,1,2019-09-20 00:00:00,DAY
646767,1,2019-09-20 00:00:00,DAY
647584,1,2019-09-20 00:00:00,DAY
647966,1,2019-09-20 00:00:00,DAY
648029,1,2019-09-20 00:00:00,DAY
648318,1,2019-09-20 00:00:00,DAY
648406,1,2019-09-20 00:00:00,DAY
648668,1,2019-09-20 00:00:00,DAY
648721,1,2019-09-20 00:00:00,DAY
648985,1,2019-09-20 00:00:00,DAY
649109,1,2019-09-20 00:00:00,DAY
649114,1,2019-09-20 00:00:00,DAY
649611,1,2019-09-20 00:00:00,DAY
649807,1,2019-09-20 00:00:00,DAY
649983,1,2019-09-20 00:00:00,DAY
650136,1,2019-09-20 00:00:00,DAY
650204,2,2019-09-20 00:00:00,DAY
650916,1,2019-09-20 00:00:00,DAY
651221,1,2019-09-20 00:00:00,DAY
651312,1,2019-09-20 00:00:00,DAY
651668,1,2019-09-20 00:00:00,DAY
65219,2,2019-09-20 00:00:00,DAY
652492,1,2019-09-20 00:00:00,DAY
653092,1,2019-09-20 00:00:00,DAY
65496,1,2019-09-20 00:00:00,DAY
655145,1,2019-09-20 00:00:00,DAY
655957,1,2019-09-20 00:00:00,DAY
655988,1,2019-09-20 00:00:00,DAY
656199,1,2019-09-20 00:00:00,DAY
656360,1,2019-09-20 00:00:00,DAY
656570,1,2019-09-20 00:00:00,DAY
657326,1,2019-09-20 00:00:00,DAY
657722,1,2019-09-20 00:00:00,DAY
657836,1,2019-09-20 00:00:00,DAY
658732,1,2019-09-20 00:00:00,DAY
659072,1,2019-09-20 00:00:00,DAY
659555,1,2019-09-20 00:00:00,DAY
659683,2,2019-09-20 00:00:00,DAY
659885,1,2019-09-20 00:00:00,DAY
660198,1,2019-09-20 00:00:00,DAY
660759,1,2019-09-20 00:00:00,DAY
660992,1,2019-09-20 00:00:00,DAY
661072,1,2019-09-20 00:00:00,DAY
662584,1,2019-09-20 00:00:00,DAY
662945,1,2019-09-20 00:00:00,DAY
662953,1,2019-09-20 00:00:00,DAY
663385,1,2019-09-20 00:00:00,DAY
663577,1,2019-09-20 00:00:00,DAY
663953,1,2019-09-20 00:00:00,DAY
66411,1,2019-09-20 00:00:00,DAY
664314,1,2019-09-20 00:00:00,DAY
664351,1,2019-09-20 00:00:00,DAY
664908,1,2019-09-20 00:00:00,DAY
665090,1,2019-09-20 00:00:00,DAY
665157,1,2019-09-20 00:00:00,DAY
665283,1,2019-09-20 00:00:00,DAY
665809,1,2019-09-20 00:00:00,DAY
665907,1,2019-09-20 00:00:00,DAY
666120,1,2019-09-20 00:00:00,DAY
667716,1,2019-09-20 00:00:00,DAY
667850,1,2019-09-20 00:00:00,DAY
668050,1,2019-09-20 00:00:00,DAY
668154,1,2019-09-20 00:00:00,DAY
668332,1,2019-09-20 00:00:00,DAY
668419,1,2019-09-20 00:00:00,DAY
668448,1,2019-09-20 00:00:00,DAY
668618,1,2019-09-20 00:00:00,DAY
669335,1,2019-09-20 00:00:00,DAY
669552,1,2019-09-20 00:00:00,DAY
669561,1,2019-09-20 00:00:00,DAY
670128,1,2019-09-20 00:00:00,DAY
670558,1,2019-09-20 00:00:00,DAY
670830,1,2019-09-20 00:00:00,DAY
670881,2,2019-09-20 00:00:00,DAY
671536,1,2019-09-20 00:00:00,DAY
671736,1,2019-09-20 00:00:00,DAY
672766,1,2019-09-20 00:00:00,DAY
673080,1,2019-09-20 00:00:00,DAY
673678,2,2019-09-20 00:00:00,DAY
673716,1,2019-09-20 00:00:00,DAY
673991,1,2019-09-20 00:00:00,DAY
674068,1,2019-09-20 00:00:00,DAY
674330,1,2019-09-20 00:00:00,DAY
674518,1,2019-09-20 00:00:00,DAY
675389,1,2019-09-20 00:00:00,DAY
675418,1,2019-09-20 00:00:00,DAY
675603,1,2019-09-20 00:00:00,DAY
675842,1,2019-09-20 00:00:00,DAY
676155,1,2019-09-20 00:00:00,DAY
677289,1,2019-09-20 00:00:00,DAY
677782,1,2019-09-20 00:00:00,DAY
678033,1,2019-09-20 00:00:00,DAY
678125,1,2019-09-20 00:00:00,DAY
678224,1,2019-09-20 00:00:00,DAY
678541,1,2019-09-20 00:00:00,DAY
678582,1,2019-09-20 00:00:00,DAY
678686,1,2019-09-20 00:00:00,DAY
678738,1,2019-09-20 00:00:00,DAY
679297,1,2019-09-20 00:00:00,DAY
679804,2,2019-09-20 00:00:00,DAY
679939,1,2019-09-20 00:00:00,DAY
680336,1,2019-09-20 00:00:00,DAY
680655,1,2019-09-20 00:00:00,DAY
680900,3,2019-09-20 00:00:00,DAY
680985,2,2019-09-20 00:00:00,DAY
681026,1,2019-09-20 00:00:00,DAY
681041,2,2019-09-20 00:00:00,DAY
681149,1,2019-09-20 00:00:00,DAY
681482,1,2019-09-20 00:00:00,DAY
681732,1,2019-09-20 00:00:00,DAY
682274,1,2019-09-20 00:00:00,DAY
682378,1,2019-09-20 00:00:00,DAY
682660,1,2019-09-20 00:00:00,DAY
683031,1,2019-09-20 00:00:00,DAY
683100,1,2019-09-20 00:00:00,DAY
683240,3,2019-09-20 00:00:00,DAY
683373,1,2019-09-20 00:00:00,DAY
683454,2,2019-09-20 00:00:00,DAY
683932,1,2019-09-20 00:00:00,DAY
685003,1,2019-09-20 00:00:00,DAY
685118,1,2019-09-20 00:00:00,DAY
685334,1,2019-09-20 00:00:00,DAY
68563,1,2019-09-20 00:00:00,DAY
685807,1,2019-09-20 00:00:00,DAY
686189,1,2019-09-20 00:00:00,DAY
686347,1,2019-09-20 00:00:00,DAY
686731,1,2019-09-20 00:00:00,DAY
686979,1,2019-09-20 00:00:00,DAY
688973,1,2019-09-20 00:00:00,DAY
689293,1,2019-09-20 00:00:00,DAY
689377,1,2019-09-20 00:00:00,DAY
689550,1,2019-09-20 00:00:00,DAY
691328,1,2019-09-20 00:00:00,DAY
691336,1,2019-09-20 00:00:00,DAY
692066,1,2019-09-20 00:00:00,DAY
692412,1,2019-09-20 00:00:00,DAY
692527,1,2019-09-20 00:00:00,DAY
693836,1,2019-09-20 00:00:00,DAY
694599,1,2019-09-20 00:00:00,DAY
694776,1,2019-09-20 00:00:00,DAY
694981,1,2019-09-20 00:00:00,DAY
695034,1,2019-09-20 00:00:00,DAY
695848,1,2019-09-20 00:00:00,DAY
696354,1,2019-09-20 00:00:00,DAY
696486,2,2019-09-20 00:00:00,DAY
697201,1,2019-09-20 00:00:00,DAY
697788,1,2019-09-20 00:00:00,DAY
697820,1,2019-09-20 00:00:00,DAY
698319,1,2019-09-20 00:00:00,DAY
698378,1,2019-09-20 00:00:00,DAY
698710,1,2019-09-20 00:00:00,DAY
698895,1,2019-09-20 00:00:00,DAY
699672,1,2019-09-20 00:00:00,DAY
699832,1,2019-09-20 00:00:00,DAY
700283,1,2019-09-20 00:00:00,DAY
700640,1,2019-09-20 00:00:00,DAY
700693,1,2019-09-20 00:00:00,DAY
700839,1,2019-09-20 00:00:00,DAY
702439,1,2019-09-20 00:00:00,DAY
702814,1,2019-09-20 00:00:00,DAY
703398,1,2019-09-20 00:00:00,DAY
703695,1,2019-09-20 00:00:00,DAY
704063,1,2019-09-20 00:00:00,DAY
704382,1,2019-09-20 00:00:00,DAY
704616,1,2019-09-20 00:00:00,DAY
704888,1,2019-09-20 00:00:00,DAY
705191,1,2019-09-20 00:00:00,DAY
705396,1,2019-09-20 00:00:00,DAY
705418,1,2019-09-20 00:00:00,DAY
705678,2,2019-09-20 00:00:00,DAY
705698,1,2019-09-20 00:00:00,DAY
705914,1,2019-09-20 00:00:00,DAY
706160,1,2019-09-20 00:00:00,DAY
706499,1,2019-09-20 00:00:00,DAY
706882,2,2019-09-20 00:00:00,DAY
706925,1,2019-09-20 00:00:00,DAY
706951,1,2019-09-20 00:00:00,DAY
707433,1,2019-09-20 00:00:00,DAY
707520,1,2019-09-20 00:00:00,DAY
707856,2,2019-09-20 00:00:00,DAY
708291,1,2019-09-20 00:00:00,DAY
709120,1,2019-09-20 00:00:00,DAY
709175,1,2019-09-20 00:00:00,DAY
709746,1,2019-09-20 00:00:00,DAY
710786,1,2019-09-20 00:00:00,DAY
711300,1,2019-09-20 00:00:00,DAY
711408,1,2019-09-20 00:00:00,DAY
711931,1,2019-09-20 00:00:00,DAY
712288,1,2019-09-20 00:00:00,DAY
712708,1,2019-09-20 00:00:00,DAY
712749,1,2019-09-20 00:00:00,DAY
712980,1,2019-09-20 00:00:00,DAY
713067,1,2019-09-20 00:00:00,DAY
713401,1,2019-09-20 00:00:00,DAY
713713,1,2019-09-20 00:00:00,DAY
714246,1,2019-09-20 00:00:00,DAY
715094,1,2019-09-20 00:00:00,DAY
715227,1,2019-09-20 00:00:00,DAY
715289,1,2019-09-20 00:00:00,DAY
715639,1,2019-09-20 00:00:00,DAY
715892,1,2019-09-20 00:00:00,DAY
716236,1,2019-09-20 00:00:00,DAY
716355,1,2019-09-20 00:00:00,DAY
716462,2,2019-09-20 00:00:00,DAY
717002,1,2019-09-20 00:00:00,DAY
717300,1,2019-09-20 00:00:00,DAY
717522,1,2019-09-20 00:00:00,DAY
717978,1,2019-09-20 00:00:00,DAY
718066,1,2019-09-20 00:00:00,DAY
718176,1,2019-09-20 00:00:00,DAY
718304,1,2019-09-20 00:00:00,DAY
718409,1,2019-09-20 00:00:00,DAY
718842,1,2019-09-20 00:00:00,DAY
719137,1,2019-09-20 00:00:00,DAY
719520,1,2019-09-20 00:00:00,DAY
719982,1,2019-09-20 00:00:00,DAY
720715,1,2019-09-20 00:00:00,DAY
720815,1,2019-09-20 00:00:00,DAY
721020,1,2019-09-20 00:00:00,DAY
721085,1,2019-09-20 00:00:00,DAY
721372,1,2019-09-20 00:00:00,DAY
722079,1,2019-09-20 00:00:00,DAY
722173,1,2019-09-20 00:00:00,DAY
722675,1,2019-09-20 00:00:00,DAY
722708,1,2019-09-20 00:00:00,DAY
722744,1,2019-09-20 00:00:00,DAY
723036,1,2019-09-20 00:00:00,DAY
723369,1,2019-09-20 00:00:00,DAY
724180,1,2019-09-20 00:00:00,DAY
724773,1,2019-09-20 00:00:00,DAY
724919,1,2019-09-20 00:00:00,DAY
725591,1,2019-09-20 00:00:00,DAY
726821,1,2019-09-20 00:00:00,DAY
727089,1,2019-09-20 00:00:00,DAY
727378,1,2019-09-20 00:00:00,DAY
727457,2,2019-09-20 00:00:00,DAY
727960,1,2019-09-20 00:00:00,DAY
727986,1,2019-09-20 00:00:00,DAY
728075,1,2019-09-20 00:00:00,DAY
728818,1,2019-09-20 00:00:00,DAY
729062,1,2019-09-20 00:00:00,DAY
729086,1,2019-09-20 00:00:00,DAY
729553,1,2019-09-20 00:00:00,DAY
730045,1,2019-09-20 00:00:00,DAY
730094,1,2019-09-20 00:00:00,DAY
730352,1,2019-09-20 00:00:00,DAY
732590,1,2019-09-20 00:00:00,DAY
732734,1,2019-09-20 00:00:00,DAY
732778,1,2019-09-20 00:00:00,DAY
733231,1,2019-09-20 00:00:00,DAY
733626,1,2019-09-20 00:00:00,DAY
734099,1,2019-09-20 00:00:00,DAY
734104,1,2019-09-20 00:00:00,DAY
734834,1,2019-09-20 00:00:00,DAY
734901,1,2019-09-20 00:00:00,DAY
7351,1,2019-09-20 00:00:00,DAY
735136,1,2019-09-20 00:00:00,DAY
736150,1,2019-09-20 00:00:00,DAY
736881,1,2019-09-20 00:00:00,DAY
737204,1,2019-09-20 00:00:00,DAY
737355,1,2019-09-20 00:00:00,DAY
737366,1,2019-09-20 00:00:00,DAY
737448,1,2019-09-20 00:00:00,DAY
737551,2,2019-09-20 00:00:00,DAY
738401,1,2019-09-20 00:00:00,DAY
738471,1,2019-09-20 00:00:00,DAY
738996,1,2019-09-20 00:00:00,DAY
739344,1,2019-09-20 00:00:00,DAY
739462,1,2019-09-20 00:00:00,DAY
740157,1,2019-09-20 00:00:00,DAY
741868,1,2019-09-20 00:00:00,DAY
74246,1,2019-09-20 00:00:00,DAY
743818,1,2019-09-20 00:00:00,DAY
743855,1,2019-09-20 00:00:00,DAY
744761,1,2019-09-20 00:00:00,DAY
74644,1,2019-09-20 00:00:00,DAY
746759,1,2019-09-20 00:00:00,DAY
746763,1,2019-09-20 00:00:00,DAY
747744,1,2019-09-20 00:00:00,DAY
748677,1,2019-09-20 00:00:00,DAY
749270,1,2019-09-20 00:00:00,DAY
750032,1,2019-09-20 00:00:00,DAY
751108,1,2019-09-20 00:00:00,DAY
752944,1,2019-09-20 00:00:00,DAY
753274,1,2019-09-20 00:00:00,DAY
753461,2,2019-09-20 00:00:00,DAY
753526,1,2019-09-20 00:00:00,DAY
754345,1,2019-09-20 00:00:00,DAY
754483,1,2019-09-20 00:00:00,DAY
754616,1,2019-09-20 00:00:00,DAY
754918,1,2019-09-20 00:00:00,DAY
755290,1,2019-09-20 00:00:00,DAY
755625,1,2019-09-20 00:00:00,DAY
755828,1,2019-09-20 00:00:00,DAY
755881,1,2019-09-20 00:00:00,DAY
756179,1,2019-09-20 00:00:00,DAY
756221,1,2019-09-20 00:00:00,DAY
756266,1,2019-09-20 00:00:00,DAY
757330,1,2019-09-20 00:00:00,DAY
757926,1,2019-09-20 00:00:00,DAY
758015,1,2019-09-20 00:00:00,DAY
758668,1,2019-09-20 00:00:00,DAY
759308,2,2019-09-20 00:00:00,DAY
759399,1,2019-09-20 00:00:00,DAY
759787,1,2019-09-20 00:00:00,DAY
760360,1,2019-09-20 00:00:00,DAY
761616,1,2019-09-20 00:00:00,DAY
761854,2,2019-09-20 00:00:00,DAY
762154,1,2019-09-20 00:00:00,DAY
762901,1,2019-09-20 00:00:00,DAY
763017,1,2019-09-20 00:00:00,DAY
763264,1,2019-09-20 00:00:00,DAY
763721,1,2019-09-20 00:00:00,DAY
766034,1,2019-09-20 00:00:00,DAY
766512,1,2019-09-20 00:00:00,DAY
766548,1,2019-09-20 00:00:00,DAY
766564,1,2019-09-20 00:00:00,DAY
766951,2,2019-09-20 00:00:00,DAY
769015,1,2019-09-20 00:00:00,DAY
769332,1,2019-09-20 00:00:00,DAY
769555,1,2019-09-20 00:00:00,DAY
770002,1,2019-09-20 00:00:00,DAY
770916,1,2019-09-20 00:00:00,DAY
771664,1,2019-09-20 00:00:00,DAY
771728,1,2019-09-20 00:00:00,DAY
772214,1,2019-09-20 00:00:00,DAY
772244,1,2019-09-20 00:00:00,DAY
772549,1,2019-09-20 00:00:00,DAY
7726,2,2019-09-20 00:00:00,DAY
773724,1,2019-09-20 00:00:00,DAY
773831,1,2019-09-20 00:00:00,DAY
774260,1,2019-09-20 00:00:00,DAY
774706,1,2019-09-20 00:00:00,DAY
774835,1,2019-09-20 00:00:00,DAY
775394,1,2019-09-20 00:00:00,DAY
775713,1,2019-09-20 00:00:00,DAY
776149,1,2019-09-20 00:00:00,DAY
777758,1,2019-09-20 00:00:00,DAY
778023,1,2019-09-20 00:00:00,DAY
778392,1,2019-09-20 00:00:00,DAY
778478,1,2019-09-20 00:00:00,DAY
778951,1,2019-09-20 00:00:00,DAY
779208,1,2019-09-20 00:00:00,DAY
779221,1,2019-09-20 00:00:00,DAY
779267,1,2019-09-20 00:00:00,DAY
779486,1,2019-09-20 00:00:00,DAY
780382,1,2019-09-20 00:00:00,DAY
780587,1,2019-09-20 00:00:00,DAY
780990,2,2019-09-20 00:00:00,DAY
781197,1,2019-09-20 00:00:00,DAY
781532,1,2019-09-20 00:00:00,DAY
781697,1,2019-09-20 00:00:00,DAY
781769,1,2019-09-20 00:00:00,DAY
782610,1,2019-09-20 00:00:00,DAY
783308,1,2019-09-20 00:00:00,DAY
783654,1,2019-09-20 00:00:00,DAY
783740,1,2019-09-20 00:00:00,DAY
784071,2,2019-09-20 00:00:00,DAY
785135,1,2019-09-20 00:00:00,DAY
785345,1,2019-09-20 00:00:00,DAY
785693,1,2019-09-20 00:00:00,DAY
785924,1,2019-09-20 00:00:00,DAY
785935,1,2019-09-20 00:00:00,DAY
786438,1,2019-09-20 00:00:00,DAY
787078,1,2019-09-20 00:00:00,DAY
787306,1,2019-09-20 00:00:00,DAY
787799,2,2019-09-20 00:00:00,DAY
788614,1,2019-09-20 00:00:00,DAY
788874,1,2019-09-20 00:00:00,DAY
788878,1,2019-09-20 00:00:00,DAY
789406,1,2019-09-20 00:00:00,DAY
790232,1,2019-09-20 00:00:00,DAY
790960,1,2019-09-20 00:00:00,DAY
790981,1,2019-09-20 00:00:00,DAY
791032,1,2019-09-20 00:00:00,DAY
791146,1,2019-09-20 00:00:00,DAY
791329,1,2019-09-20 00:00:00,DAY
791838,1,2019-09-20 00:00:00,DAY
792612,1,2019-09-20 00:00:00,DAY
792872,1,2019-09-20 00:00:00,DAY
793094,1,2019-09-20 00:00:00,DAY
793645,1,2019-09-20 00:00:00,DAY
793999,1,2019-09-20 00:00:00,DAY
794024,1,2019-09-20 00:00:00,DAY
794170,1,2019-09-20 00:00:00,DAY
794594,1,2019-09-20 00:00:00,DAY
794685,1,2019-09-20 00:00:00,DAY
794956,5,2019-09-20 00:00:00,DAY
795087,1,2019-09-20 00:00:00,DAY
795838,1,2019-09-20 00:00:00,DAY
796242,1,2019-09-20 00:00:00,DAY
797192,1,2019-09-20 00:00:00,DAY
797439,1,2019-09-20 00:00:00,DAY
797500,1,2019-09-20 00:00:00,DAY
797754,1,2019-09-20 00:00:00,DAY
798002,1,2019-09-20 00:00:00,DAY
798091,1,2019-09-20 00:00:00,DAY
798359,1,2019-09-20 00:00:00,DAY
798728,1,2019-09-20 00:00:00,DAY
799273,1,2019-09-20 00:00:00,DAY
799282,1,2019-09-20 00:00:00,DAY
799330,1,2019-09-20 00:00:00,DAY
800194,1,2019-09-20 00:00:00,DAY
800369,1,2019-09-20 00:00:00,DAY
80043,1,2019-09-20 00:00:00,DAY
801607,1,2019-09-20 00:00:00,DAY
802065,1,2019-09-20 00:00:00,DAY
802430,1,2019-09-20 00:00:00,DAY
803582,1,2019-09-20 00:00:00,DAY
803881,1,2019-09-20 00:00:00,DAY
803946,1,2019-09-20 00:00:00,DAY
803988,1,2019-09-20 00:00:00,DAY
804003,1,2019-09-20 00:00:00,DAY
804010,2,2019-09-20 00:00:00,DAY
806167,1,2019-09-20 00:00:00,DAY
806186,1,2019-09-20 00:00:00,DAY
806675,2,2019-09-20 00:00:00,DAY
807878,1,2019-09-20 00:00:00,DAY
807910,1,2019-09-20 00:00:00,DAY
808175,1,2019-09-20 00:00:00,DAY
80878,1,2019-09-20 00:00:00,DAY
809594,1,2019-09-20 00:00:00,DAY
809718,1,2019-09-20 00:00:00,DAY
809727,3,2019-09-20 00:00:00,DAY
809756,1,2019-09-20 00:00:00,DAY
810092,1,2019-09-20 00:00:00,DAY
810119,1,2019-09-20 00:00:00,DAY
810275,1,2019-09-20 00:00:00,DAY
810932,1,2019-09-20 00:00:00,DAY
811256,1,2019-09-20 00:00:00,DAY
811708,2,2019-09-20 00:00:00,DAY
811800,1,2019-09-20 00:00:00,DAY
811839,1,2019-09-20 00:00:00,DAY
812323,1,2019-09-20 00:00:00,DAY
812524,1,2019-09-20 00:00:00,DAY
812757,1,2019-09-20 00:00:00,DAY
812797,1,2019-09-20 00:00:00,DAY
812865,1,2019-09-20 00:00:00,DAY
812883,1,2019-09-20 00:00:00,DAY
813144,1,2019-09-20 00:00:00,DAY
813329,1,2019-09-20 00:00:00,DAY
813396,1,2019-09-20 00:00:00,DAY
813693,1,2019-09-20 00:00:00,DAY
813896,1,2019-09-20 00:00:00,DAY
814067,1,2019-09-20 00:00:00,DAY
814163,1,2019-09-20 00:00:00,DAY
814359,1,2019-09-20 00:00:00,DAY
815545,1,2019-09-20 00:00:00,DAY
815671,1,2019-09-20 00:00:00,DAY
815702,1,2019-09-20 00:00:00,DAY
815823,1,2019-09-20 00:00:00,DAY
815953,1,2019-09-20 00:00:00,DAY
816788,1,2019-09-20 00:00:00,DAY
817063,1,2019-09-20 00:00:00,DAY
817311,1,2019-09-20 00:00:00,DAY
817339,2,2019-09-20 00:00:00,DAY
817467,1,2019-09-20 00:00:00,DAY
817470,1,2019-09-20 00:00:00,DAY
817498,1,2019-09-20 00:00:00,DAY
817508,1,2019-09-20 00:00:00,DAY
817604,1,2019-09-20 00:00:00,DAY
817708,1,2019-09-20 00:00:00,DAY
817759,1,2019-09-20 00:00:00,DAY
817915,1,2019-09-20 00:00:00,DAY
81850,1,2019-09-20 00:00:00,DAY
818849,1,2019-09-20 00:00:00,DAY
819089,1,2019-09-20 00:00:00,DAY
819092,1,2019-09-20 00:00:00,DAY
819191,1,2019-09-20 00:00:00,DAY
820491,1,2019-09-20 00:00:00,DAY
820680,1,2019-09-20 00:00:00,DAY
82161,1,2019-09-20 00:00:00,DAY
821966,1,2019-09-20 00:00:00,DAY
822213,1,2019-09-20 00:00:00,DAY
822733,1,2019-09-20 00:00:00,DAY
823198,1,2019-09-20 00:00:00,DAY
823204,1,2019-09-20 00:00:00,DAY
823404,2,2019-09-20 00:00:00,DAY
823880,1,2019-09-20 00:00:00,DAY
824056,2,2019-09-20 00:00:00,DAY
824846,1,2019-09-20 00:00:00,DAY
824883,1,2019-09-20 00:00:00,DAY
825461,1,2019-09-20 00:00:00,DAY
825503,1,2019-09-20 00:00:00,DAY
825654,1,2019-09-20 00:00:00,DAY
825874,1,2019-09-20 00:00:00,DAY
826659,1,2019-09-20 00:00:00,DAY
826990,1,2019-09-20 00:00:00,DAY
827468,1,2019-09-20 00:00:00,DAY
828425,1,2019-09-20 00:00:00,DAY
828453,1,2019-09-20 00:00:00,DAY
828834,1,2019-09-20 00:00:00,DAY
828953,1,2019-09-20 00:00:00,DAY
829182,1,2019-09-20 00:00:00,DAY
829256,1,2019-09-20 00:00:00,DAY
829483,2,2019-09-20 00:00:00,DAY
829517,1,2019-09-20 00:00:00,DAY
829632,2,2019-09-20 00:00:00,DAY
829642,1,2019-09-20 00:00:00,DAY
830309,1,2019-09-20 00:00:00,DAY
83063,1,2019-09-20 00:00:00,DAY
830786,1,2019-09-20 00:00:00,DAY
831108,1,2019-09-20 00:00:00,DAY
831629,1,2019-09-20 00:00:00,DAY
832509,1,2019-09-20 00:00:00,DAY
832788,1,2019-09-20 00:00:00,DAY
832818,1,2019-09-20 00:00:00,DAY
832989,1,2019-09-20 00:00:00,DAY
833460,1,2019-09-20 00:00:00,DAY
833552,1,2019-09-20 00:00:00,DAY
833794,1,2019-09-20 00:00:00,DAY
833836,1,2019-09-20 00:00:00,DAY
834132,1,2019-09-20 00:00:00,DAY
834248,5,2019-09-20 00:00:00,DAY
834314,1,2019-09-20 00:00:00,DAY
834680,1,2019-09-20 00:00:00,DAY
834937,1,2019-09-20 00:00:00,DAY
834959,1,2019-09-20 00:00:00,DAY
835125,1,2019-09-20 00:00:00,DAY
835366,1,2019-09-20 00:00:00,DAY
835584,1,2019-09-20 00:00:00,DAY
8359,1,2019-09-20 00:00:00,DAY
835935,2,2019-09-20 00:00:00,DAY
836172,1,2019-09-20 00:00:00,DAY
836407,1,2019-09-20 00:00:00,DAY
836951,1,2019-09-20 00:00:00,DAY
837570,1,2019-09-20 00:00:00,DAY
837698,1,2019-09-20 00:00:00,DAY
838142,1,2019-09-20 00:00:00,DAY
838487,1,2019-09-20 00:00:00,DAY
838493,1,2019-09-20 00:00:00,DAY
838657,1,2019-09-20 00:00:00,DAY
838707,1,2019-09-20 00:00:00,DAY
838735,1,2019-09-20 00:00:00,DAY
838875,1,2019-09-20 00:00:00,DAY
838943,1,2019-09-20 00:00:00,DAY
839751,1,2019-09-20 00:00:00,DAY
839846,1,2019-09-20 00:00:00,DAY
839890,1,2019-09-20 00:00:00,DAY
840482,1,2019-09-20 00:00:00,DAY
840735,1,2019-09-20 00:00:00,DAY
840839,1,2019-09-20 00:00:00,DAY
840912,1,2019-09-20 00:00:00,DAY
840959,1,2019-09-20 00:00:00,DAY
841250,1,2019-09-20 00:00:00,DAY
841311,1,2019-09-20 00:00:00,DAY
841764,1,2019-09-20 00:00:00,DAY
842140,1,2019-09-20 00:00:00,DAY
842186,1,2019-09-20 00:00:00,DAY
842400,1,2019-09-20 00:00:00,DAY
842606,1,2019-09-20 00:00:00,DAY
842916,1,2019-09-20 00:00:00,DAY
843422,2,2019-09-20 00:00:00,DAY
843871,1,2019-09-20 00:00:00,DAY
843932,1,2019-09-20 00:00:00,DAY
844324,1,2019-09-20 00:00:00,DAY
845873,1,2019-09-20 00:00:00,DAY
846078,1,2019-09-20 00:00:00,DAY
846116,1,2019-09-20 00:00:00,DAY
846197,1,2019-09-20 00:00:00,DAY
846243,1,2019-09-20 00:00:00,DAY
846374,1,2019-09-20 00:00:00,DAY
846675,1,2019-09-20 00:00:00,DAY
846906,1,2019-09-20 00:00:00,DAY
846909,1,2019-09-20 00:00:00,DAY
847048,1,2019-09-20 00:00:00,DAY
847264,1,2019-09-20 00:00:00,DAY
847302,1,2019-09-20 00:00:00,DAY
847637,1,2019-09-20 00:00:00,DAY
847754,1,2019-09-20 00:00:00,DAY
847958,1,2019-09-20 00:00:00,DAY
848135,1,2019-09-20 00:00:00,DAY
848301,1,2019-09-20 00:00:00,DAY
848955,2,2019-09-20 00:00:00,DAY
848987,2,2019-09-20 00:00:00,DAY
849159,1,2019-09-20 00:00:00,DAY
849316,1,2019-09-20 00:00:00,DAY
849448,1,2019-09-20 00:00:00,DAY
849792,1,2019-09-20 00:00:00,DAY
849905,1,2019-09-20 00:00:00,DAY
850200,2,2019-09-20 00:00:00,DAY
850644,1,2019-09-20 00:00:00,DAY
852238,1,2019-09-20 00:00:00,DAY
852815,1,2019-09-20 00:00:00,DAY
853101,1,2019-09-20 00:00:00,DAY
853195,1,2019-09-20 00:00:00,DAY
853208,1,2019-09-20 00:00:00,DAY
853745,1,2019-09-20 00:00:00,DAY
854591,1,2019-09-20 00:00:00,DAY
854643,1,2019-09-20 00:00:00,DAY
854683,1,2019-09-20 00:00:00,DAY
854764,2,2019-09-20 00:00:00,DAY
854799,1,2019-09-20 00:00:00,DAY
857039,1,2019-09-20 00:00:00,DAY
85706,1,2019-09-20 00:00:00,DAY
857321,1,2019-09-20 00:00:00,DAY
857342,1,2019-09-20 00:00:00,DAY
857378,1,2019-09-20 00:00:00,DAY
857911,1,2019-09-20 00:00:00,DAY
858031,1,2019-09-20 00:00:00,DAY
859128,1,2019-09-20 00:00:00,DAY
859510,1,2019-09-20 00:00:00,DAY
859676,1,2019-09-20 00:00:00,DAY
859793,1,2019-09-20 00:00:00,DAY
859803,1,2019-09-20 00:00:00,DAY
859829,1,2019-09-20 00:00:00,DAY
860217,2,2019-09-20 00:00:00,DAY
860256,1,2019-09-20 00:00:00,DAY
860325,1,2019-09-20 00:00:00,DAY
860606,1,2019-09-20 00:00:00,DAY
860781,1,2019-09-20 00:00:00,DAY
860998,1,2019-09-20 00:00:00,DAY
861207,1,2019-09-20 00:00:00,DAY
861382,3,2019-09-20 00:00:00,DAY
861484,1,2019-09-20 00:00:00,DAY
862170,1,2019-09-20 00:00:00,DAY
862399,1,2019-09-20 00:00:00,DAY
863314,1,2019-09-20 00:00:00,DAY
863619,1,2019-09-20 00:00:00,DAY
863653,1,2019-09-20 00:00:00,DAY
863891,1,2019-09-20 00:00:00,DAY
863911,1,2019-09-20 00:00:00,DAY
864348,1,2019-09-20 00:00:00,DAY
864970,1,2019-09-20 00:00:00,DAY
865055,1,2019-09-20 00:00:00,DAY
865126,2,2019-09-20 00:00:00,DAY
865198,1,2019-09-20 00:00:00,DAY
865233,1,2019-09-20 00:00:00,DAY
865520,1,2019-09-20 00:00:00,DAY
865938,1,2019-09-20 00:00:00,DAY
866195,1,2019-09-20 00:00:00,DAY
866696,1,2019-09-20 00:00:00,DAY
867175,1,2019-09-20 00:00:00,DAY
867270,1,2019-09-20 00:00:00,DAY
867286,1,2019-09-20 00:00:00,DAY
867374,1,2019-09-20 00:00:00,DAY
867828,1,2019-09-20 00:00:00,DAY
867857,1,2019-09-20 00:00:00,DAY
868345,1,2019-09-20 00:00:00,DAY
868630,1,2019-09-20 00:00:00,DAY
868731,1,2019-09-20 00:00:00,DAY
869340,1,2019-09-20 00:00:00,DAY
869454,1,2019-09-20 00:00:00,DAY
869603,1,2019-09-20 00:00:00,DAY
869782,1,2019-09-20 00:00:00,DAY
870503,1,2019-09-20 00:00:00,DAY
870584,1,2019-09-20 00:00:00,DAY
871013,1,2019-09-20 00:00:00,DAY
87110,1,2019-09-20 00:00:00,DAY
871136,1,2019-09-20 00:00:00,DAY
871297,1,2019-09-20 00:00:00,DAY
871652,1,2019-09-20 00:00:00,DAY
871751,1,2019-09-20 00:00:00,DAY
871771,1,2019-09-20 00:00:00,DAY
872034,1,2019-09-20 00:00:00,DAY
872036,1,2019-09-20 00:00:00,DAY
872078,1,2019-09-20 00:00:00,DAY
872256,1,2019-09-20 00:00:00,DAY
872363,1,2019-09-20 00:00:00,DAY
872456,2,2019-09-20 00:00:00,DAY
872548,1,2019-09-20 00:00:00,DAY
872670,1,2019-09-20 00:00:00,DAY
872706,1,2019-09-20 00:00:00,DAY
874312,1,2019-09-20 00:00:00,DAY
875396,1,2019-09-20 00:00:00,DAY
875795,1,2019-09-20 00:00:00,DAY
875851,1,2019-09-20 00:00:00,DAY
875871,1,2019-09-20 00:00:00,DAY
875917,1,2019-09-20 00:00:00,DAY
876183,1,2019-09-20 00:00:00,DAY
876386,1,2019-09-20 00:00:00,DAY
876646,1,2019-09-20 00:00:00,DAY
876651,1,2019-09-20 00:00:00,DAY
876877,1,2019-09-20 00:00:00,DAY
877394,1,2019-09-20 00:00:00,DAY
877559,1,2019-09-20 00:00:00,DAY
877582,1,2019-09-20 00:00:00,DAY
877884,1,2019-09-20 00:00:00,DAY
878133,1,2019-09-20 00:00:00,DAY
879308,1,2019-09-20 00:00:00,DAY
880200,1,2019-09-20 00:00:00,DAY
880540,1,2019-09-20 00:00:00,DAY
880601,1,2019-09-20 00:00:00,DAY
881003,1,2019-09-20 00:00:00,DAY
881128,2,2019-09-20 00:00:00,DAY
881363,1,2019-09-20 00:00:00,DAY
881463,1,2019-09-20 00:00:00,DAY
881568,1,2019-09-20 00:00:00,DAY
882100,1,2019-09-20 00:00:00,DAY
882108,1,2019-09-20 00:00:00,DAY
882253,1,2019-09-20 00:00:00,DAY
882606,1,2019-09-20 00:00:00,DAY
882629,1,2019-09-20 00:00:00,DAY
882688,2,2019-09-20 00:00:00,DAY
882798,1,2019-09-20 00:00:00,DAY
883403,1,2019-09-20 00:00:00,DAY
883485,1,2019-09-20 00:00:00,DAY
883870,2,2019-09-20 00:00:00,DAY
884426,1,2019-09-20 00:00:00,DAY
884747,1,2019-09-20 00:00:00,DAY
885162,1,2019-09-20 00:00:00,DAY
885300,1,2019-09-20 00:00:00,DAY
885650,1,2019-09-20 00:00:00,DAY
886199,1,2019-09-20 00:00:00,DAY
886348,1,2019-09-20 00:00:00,DAY
886525,1,2019-09-20 00:00:00,DAY
887066,1,2019-09-20 00:00:00,DAY
887156,1,2019-09-20 00:00:00,DAY
887168,1,2019-09-20 00:00:00,DAY
887177,1,2019-09-20 00:00:00,DAY
887783,1,2019-09-20 00:00:00,DAY
887868,1,2019-09-20 00:00:00,DAY
887922,1,2019-09-20 00:00:00,DAY
88799,1,2019-09-20 00:00:00,DAY
888482,1,2019-09-20 00:00:00,DAY
888995,1,2019-09-20 00:00:00,DAY
889439,1,2019-09-20 00:00:00,DAY
890485,1,2019-09-20 00:00:00,DAY
891847,1,2019-09-20 00:00:00,DAY
892449,1,2019-09-20 00:00:00,DAY
892532,1,2019-09-20 00:00:00,DAY
892784,1,2019-09-20 00:00:00,DAY
892955,1,2019-09-20 00:00:00,DAY
893260,1,2019-09-20 00:00:00,DAY
893739,1,2019-09-20 00:00:00,DAY
893788,1,2019-09-20 00:00:00,DAY
893923,1,2019-09-20 00:00:00,DAY
893929,3,2019-09-20 00:00:00,DAY
893966,1,2019-09-20 00:00:00,DAY
894961,1,2019-09-20 00:00:00,DAY
895004,1,2019-09-20 00:00:00,DAY
895056,1,2019-09-20 00:00:00,DAY
895131,1,2019-09-20 00:00:00,DAY
895261,1,2019-09-20 00:00:00,DAY
895366,1,2019-09-20 00:00:00,DAY
895643,1,2019-09-20 00:00:00,DAY
895715,3,2019-09-20 00:00:00,DAY
895724,2,2019-09-20 00:00:00,DAY
895728,1,2019-09-20 00:00:00,DAY
896290,1,2019-09-20 00:00:00,DAY
896439,3,2019-09-20 00:00:00,DAY
896484,1,2019-09-20 00:00:00,DAY
896495,1,2019-09-20 00:00:00,DAY
896515,1,2019-09-20 00:00:00,DAY
896760,1,2019-09-20 00:00:00,DAY
897395,1,2019-09-20 00:00:00,DAY
897551,1,2019-09-20 00:00:00,DAY
897651,1,2019-09-20 00:00:00,DAY
897872,1,2019-09-20 00:00:00,DAY
898785,1,2019-09-20 00:00:00,DAY
899228,1,2019-09-20 00:00:00,DAY
899235,1,2019-09-20 00:00:00,DAY
899432,1,2019-09-20 00:00:00,DAY
899548,1,2019-09-20 00:00:00,DAY
900284,1,2019-09-20 00:00:00,DAY
900412,1,2019-09-20 00:00:00,DAY
900914,1,2019-09-20 00:00:00,DAY
901240,1,2019-09-20 00:00:00,DAY
901427,1,2019-09-20 00:00:00,DAY
902711,1,2019-09-20 00:00:00,DAY
902744,1,2019-09-20 00:00:00,DAY
902829,1,2019-09-20 00:00:00,DAY
903612,1,2019-09-20 00:00:00,DAY
903832,1,2019-09-20 00:00:00,DAY
903949,1,2019-09-20 00:00:00,DAY
90447,1,2019-09-20 00:00:00,DAY
905957,1,2019-09-20 00:00:00,DAY
905961,7,2019-09-20 00:00:00,DAY
91516,1,2019-09-20 00:00:00,DAY
93571,1,2019-09-20 00:00:00,DAY
94113,1,2019-09-20 00:00:00,DAY
94886,1,2019-09-20 00:00:00,DAY
96220,1,2019-09-20 00:00:00,DAY